{
    "key": "group_61b14fa0d0e3a",
    "title": "Product Categories Taxonomy",
    "fields": [
        {
            "key": "field_61b14fa0d9f88",
            "label": "Category display order by",
            "name": "product-cat-order",
            "type": "radio",
            "instructions": "",
            "required": 0,
            "conditional_logic": 0,
            "wrapper": {
                "width": "",
                "class": "",
                "id": ""
            },
            "choices": {
                "stock": "Stock",
                "popularity": "Popularity",
                "title": "Title",
                "date": "Date",
                "price": "Price"
            },
            "allow_null": 0,
            "other_choice": 0,
            "default_value": "stock",
            "layout": "horizontal",
            "return_format": "value",
            "save_other_choice": 0
        },
        {
            "key": "field_61b14fa0d9f90",
            "label": "Category display order",
            "name": "product-cat-order-by",
            "type": "radio",
            "instructions": "Ascending order from lowest to highest values (1, 2, 3; a, b, c).\r\nDescending order from highest to lowest values (3, 2, 1; c, b, a).",
            "required": 0,
            "conditional_logic": 0,
            "wrapper": {
                "width": "",
                "class": "",
                "id": ""
            },
            "choices": {
                "ASC": "Ascending",
                "DESC": "Descending"
            },
            "allow_null": 0,
            "other_choice": 0,
            "default_value": "DESC",
            "layout": "horizontal",
            "return_format": "value",
            "save_other_choice": 0
        },
        {
            "key": "field_61ba4342ffb80",
            "label": "Show out of stock",
            "name": "product-cat-show-out-of-stock",
            "type": "true_false",
            "instructions": "If selected out of stock products will be shown.",
            "required": 0,
            "conditional_logic": 0,
            "wrapper": {
                "width": "",
                "class": "",
                "id": ""
            },
            "message": "",
            "default_value": 1,
            "ui": 0,
            "ui_on_text": "",
            "ui_off_text": ""
        },
        {
            "key": "field_61b1549696546",
            "label": "Prioritize in stock",
            "name": "product-cat-prioritize-stock",
            "type": "true_false",
            "instructions": "If selected out of stock products will always be shown at the end.",
            "required": 0,
            "conditional_logic": [
                [
                    {
                        "field": "field_61ba4342ffb80",
                        "operator": "==",
                        "value": "1"
                    }
                ]
            ],
            "wrapper": {
                "width": "",
                "class": "",
                "id": ""
            },
            "message": "",
            "default_value": 1,
            "ui": 0,
            "ui_on_text": "",
            "ui_off_text": ""
        }
    ],
    "location": [
        [
            {
                "param": "taxonomy",
                "operator": "==",
                "value": "product_cat"
            }
        ]
    ],
    "menu_order": 0,
    "position": "normal",
    "style": "default",
    "label_placement": "top",
    "instruction_placement": "label",
    "hide_on_screen": "",
    "active": true,
    "description": "",
    "modified": 1639596937
}