<svg xmlns="http://www.w3.org/2000/svg" version="1.1" xmlns:xlink="http://www.w3.org/1999/xlink" xmlns:svgjs="http://svgjs.com/svgjs" width="315.228" height="317.507"><svg xmlns="http://www.w3.org/2000/svg" version="1.1" xmlns:xlink="http://www.w3.org/1999/xlink" xmlns:svgjs="http://svgjs.com/svgjs" width="315.228" height="317.507"><svg viewBox="525.619 507.914 315.228 317.507" xmlns="http://www.w3.org/2000/svg"><g fill="#211d1d"><path d="M663.926 799.25c-.053-.166-.102-.333-.153-.5-.264.11-.53.216-.787.338-.005.001.072.253.107.25.277-.01.556-.053.833-.088m129.341-.638l.351 1.349.848-1.032-1.2-.317m-.747 3.122h1.266l-.442-1.152-.824 1.154m-12.228 4.038l.2.491.856-.312c-.088-.17-.206-.495-.26-.484-.274.053-.533.195-.796.305m-115 8.052c.947.214 1.666.42 2.266-.173.127-.125-.023-.527-.047-.817-1.474.31-1.474.31-2.217.989m12.17-15.399c.473.796.807 1.32 1.097 1.864.265.502-.383 1.239.368 1.706.56-1.394.065-2.736-1.464-3.568m-1.388 12.51l-.011.448 3.447.703c.189-.48.065-.77-.48-.93-.644-.187-1.268-.458-2.071-.755l-.885.533m128.466-6.264l1.065 2.313c.176-1.544.555-3.053-.35-4.501l-.714 2.187m-17.989-4.992l2.787.177v-1.268h-2.85l.063 1.09m15.47-.833l.382 2.115c1.365.023 1.365.023 1.472-2.115zm-7.65 11.37c.595 1.408.104 2.438-1.035 3.485 1.36.28 1.57-.855 2.22-1.195.811-.425.478-1.269.426-2.032l-1.611-.26m-10.1 1.235c-.41.535-.69 1.053-.043 1.632.656.588 1.11 1.655 2.358.983l-.356-1.659-1.96-.956M574.169 706.263c-2.792-.354-8.534-.126-9.416.376 3.107.38 6.126.34 9.416-.378m219.96-.17a36.12 36.12 0 00-8.758-.356c-.902.072-1.046.306-1.09 1.24.782-.128 1.598-.32 2.426-.383 2.472-.193 4.947-.337 7.422-.501m34.598 90.089c-1.992-.443-3.725-.854-5.474-1.186-.264-.049-.598.271-1.295.616 1.7.606 3.004 1.17 4.364 1.514.744.188 1.532-.13 2.405-.944m-214.74-180.443c-1.49-.925-2.12-.949-2.894-.232-.98.907-1.072 1.823-.23 3.402l3.125-3.17m-20.561.948l-2.802.136c-.297 2.27-.244 3.086.296 4.15 1.123-1.19 2.182-2.323 2.506-4.286m22.415-11.213c-1.22.315-1.293 1.127-1.43 1.835-.154.786-.192 1.596-.288 2.393-.176 1.461.048 1.69 1.718 1.64zm180.82 193.366l1.036 2.922c1.755.402 2.003 1.782 1.679 3.533.928-.22 1.746.516 2.629-.28-.261-.417-.565-.784-.73-1.204-.191-.483-.26-1.013-.377-1.504-2.084-.48-2.684-.992-2.156-3.467zM615.728 581.282l-.487-.071-3.233 8.347c.306.126.54.25.79.32.463.133.932.268 1.408.338 1.163.174 1.475-.066 1.507-1.233.04-1.343.013-2.688.013-4.033.003-1.223 0-2.446 0-3.667m-24.365 131.533c1.142-.703 5.29-5.861 5.587-6.955-1.121 0-2.243.059-3.355-.018-1.053-.071-1.573.462-1.941 1.336-.352.833-.563 4.39-.29 5.637m-35.953 39.07c0 .407-.036.571.006.711.945 3.139 1.558 6.341 2.065 9.579.305 1.946.867 3.857 1.385 5.766.276 1.022.827 1.916 1.724 2.7.27-3.95-2.873-15.417-5.18-18.756m-7.869 67.938c2.528-.38 4.917-.883 6.813-2.624 1.343-1.23 1.77-2.867 1.155-4.455-.823-.233-1.419.263-2.027.68a144.413 144.413 0 00-3.277 2.303c-1.387 1.009-2.068 2.493-2.664 4.096m255.13-44.344c3.825-6.015 5.18-12.348 4.947-19.43-1.364 2.22-5.099 16.984-4.947 19.43m14.957 4.062c2.063-.569 3.612-1.506 4.506-3.445a22.893 22.893 0 001.973-7.103c.025-.232-.08-.48-.13-.748-3.567 1.627-7.229 8.076-6.349 11.296m-131.387-65.44c1.845-1.135 8.038-7.24 8.45-8.23-2.117-.51-4.25-.27-6.382-.148-.78.044-1.127.507-1.336 1.173-.718 2.283-.738 4.626-.734 7.204m-10.46 1c.086-.746.179-1.148.17-1.546-.035-1.498-.215-3-.13-4.487.103-1.797-.909-3.1-3.164-3.196-1.336-.056-2.676-.023-4.013 0-.273.007-.547.15-1.05.299 2.847 2.92 5.163 6.03 8.187 8.93m96.675-.634l.398-.12c.078-1.58.223-3.158.208-4.735-.008-.9-.226-1.81-.44-2.695-.174-.71-.602-1.313-1.416-1.354-1.924-.098-3.853-.15-5.778-.198-.244-.005-.49.128-.994.27 2.75 3.05 5.083 6.217 8.022 8.832M604.676 565.308c-1.702-1.473-3.26-2.861-4.875-4.181-.256-.21-.826-.272-1.134-.137-1.436.626-2.403 2.516-1.952 4.01.445 1.479 1.096 2.898 1.678 4.334.223.546.678.653 1.2.465 2.244-.813 4.08-2.09 5.083-4.49m-4.327-12.427c-.422-.063-.63-.115-.84-.12-2.193-.054-4.388-.099-6.582-.147a4.321 4.321 0 00-.644.021c-.98.134-1.446.511-1.588 1.515a35.473 35.473 0 00-.35 3.848c-.034 1.097.27 1.375 1.346 1.245 3.98-.48 6.837-2.54 8.658-6.364m2.523 73.515c.317-.14.54-.18.678-.31 1.875-1.752 3.08-3.848 3.063-6.476-.01-1.172-.517-2.304-1.476-2.918a21.132 21.132 0 00-4.96-2.31c-.873.707-.653 1.498-.44 2.187 1.003 3.255 2.064 6.493 3.133 9.827m64.427 175.063c1.379 0 2.36.78 2.355 2.618 1.2-.058 2.504-.41 3.005.982.51 1.422-.108 2.49-1.192 3.058.09 1.004.477 1.982.16 2.604-.455.894-.259 1.624-.121 2.445.154.925.669.935 1.312.632.098-.67.053-1.31.301-1.803.273-.542.816-.946 1.252-1.426-.85-1.41-.885-2.359-.084-3.134.757-.733 1.505-.693 2.993.126.663-.183 1.266-.383 1.883-.511.807-.168.71-.621.432-1.296-2.375.515-2.672-1.156-2.901-2.947-.258.404-.347.756-.504 1.072-.415.824-1.114 1.207-1.96 1.114-.774-.088-1.278-.532-1.551-1.234-.296-.762-.133-1.724.667-2.124 1.246-.62 1.472-1.832 2.274-2.956H672.6c.352 1.218.72 2.34-.4 3.203-.66.507-1.423.563-2.128.184-1.47-.787-1.086-2.115-.747-3.43h-3.62l1.592 2.823m-76.842-222.292c.394-.107.646-.152.88-.246 1.197-.473 1.92-1.501 2.79-2.368 1.4-1.39 1.556-2.926.84-4.71a93.097 93.097 0 01-2.057-5.732c-.244-.744-.273-1.56-.427-2.503l-1.926.119c-.614 5.216-.42 10.26-.1 15.44M783.94 669.25c-.044.876-.098 1.346-.087 1.818.05 2.144.107 4.29.181 6.434.052 1.554.432 2.037 2.014 2.104 2.678.113 5.362.104 8.044.129.177 0 .356-.147.768-.327l-10.92-10.16m-181.07-66.833c-.382 2.659-.737 4.976-1.018 7.303-.032.264.283.702.55.848 1.178.634 2.366 1.272 3.609 1.754 1.522.592 2.777.148 3.533-1.313.48-.93.73-1.999.956-3.035.205-.952-.272-1.632-1.155-2.058a76.433 76.433 0 01-2.994-1.543c-1.07-.579-2.123-1.19-3.482-1.956m180.97 207.838c.605-1.121 1.12-2.186 2.52-2.037 1.365.144 1.637 1.204 1.84 2.437 1.837.064 1.997 1.44 2.06 2.878.843-.514.843-.514.609-1.431-.351-1.364.322-2.333 1.725-2.461.35-.032.705-.004 1.083-.004-.324-2.023.206-3.176 1.493-3.322.395-.044.853.086 1.219.266 1.168.576.912 1.805 1.113 2.836 1.785.012 2.383 1.093 2.433 2.366l2.584 1.511 2.939-1.88-.833-1.03c-.8 1.173-1.722 1.89-3.054 1.493-1.284-.384-1.316-1.544-1.405-2.579-2-.77-2.068-.89-1.979-3.356-.296-.048-.614-.068-.914-.153-1.123-.316-1.478-.823-1.486-2.303-.004-.624-.086-.948-.836-.656.111 1.185.13 2.35-1.196 2.87-.774.303-1.514.08-2.054-.533-.98-1.112-.35-2.176.284-3.2l-2.248-.662c-.046 1.234-.44 2.149-1.68 2.297-.391.045-.951-.056-1.198-.315-.526-.554-.898-1.256-1.377-1.96l-2.323-.113c-.149.192-.321.396-.473.613-.136.192-.248.4-.405.66 1.796.116 2.496.576 2.682 1.68.218 1.29-.27 1.93-2.204 2.787.67.947-.362 2.355 1.08 3.301M683.32 673.281c-.486 1.636-.378 3.239-.08 4.822.23 1.2.767 1.62 2.038 1.649 1.99.045 3.981-.003 5.97.023.793.009 1.209-.379 1.346-1.1.22-1.162.48-2.322.587-3.495.16-1.73-.058-1.995-1.811-2.047-2.419-.073-4.84-.03-7.261-.021-.254 0-.507.107-.787.17m-114.986 6.16c.573.09.876.178 1.178.18 2.307.013 4.614.015 6.92.006 1.752-.007 2.064-.293 2.155-2.017.084-1.61.15-3.22.184-4.831.03-1.427.007-2.853.007-4.277l-.444-.179c-3.28 3.64-7.112 6.776-10 11.12m99.965-5.961c0 1.73-.054 3.221.018 4.706.044.89.547 1.368 1.464 1.402 2.566.097 5.134.121 7.703.165.581.01 1.119-.2 1.267-.788.452-1.808.757-3.637.41-5.747l-10.862.26m-77.65-73.266c0 3.91-.017 7.621.01 11.33.007 1.075.461 1.458 1.533 1.28 1.359-.229 2.687-.792 3.488-1.868 1.35-1.81 2.342-3.86 2.787-6.114.132-.663.163-1.344.261-2.21-1.541 0-3.01.298-4.27-.083-1.314-.398-2.428-1.454-3.81-2.335m25.396-35.224c-2.299 1.085-4.375 1.053-6.464 1-.35-.01-.844.272-1.04.57-.893 1.378-1.707 2.809-2.632 4.36 2.147 1.331 4.147 2.82 6.52 3.74 1.553.603 3.688-.533 3.587-2.658-.055-1.172.021-2.35.026-3.527.008-1.008.003-2.016.003-3.486m-.447 29.617c-2.222-.437-4.25-.91-6.304-1.219-2.229-.336-4.489 1.667-4.616 3.934-.045.826.198 1.42.986 1.84 1.325.7 2.592 1.517 3.91 2.237.56.307 1.17.56 1.786.707 1.266.3 2.68-.36 3.29-1.474 1.04-1.904 1.366-3.917.947-6.025m-55.18 196.186c.987-4.879-.922-13.612-3.57-18.396-2.6-4.696-5.788-8.74-7.674-9.49.07.25.103.453.182.634 1.005 2.31 2.032 4.61 3.024 6.927.972 2.266 1.996 4.517 2.842 6.832.867 2.366 1.502 4.816 2.319 7.201a33.868 33.868 0 002.877 6.29m30.207-152.154c.523-.229.71-.252.796-.357 2.047-2.475 4.447-4.633 6.17-7.408 1.394-2.248 1.49-4.37.369-6.692-.438-.907-.667-1.913-1.004-2.87-.08-.226-.214-.431-.284-.574-1.65 1.647-3.235 3.223-4.808 4.81-.8.805-1.071 1.842-1.195 2.925-.068.586-.139 1.176-.135 1.764.014 2.72.056 5.44.09 8.402m116.998 31.844h-7.833c-.347 1.392-.991 2.507-2.374 3.058-.234.093-.504.477-.501.722.017 1.336.005 2.688.221 3.998.183 1.108.858 1.494 1.974 1.48 1.929-.031 3.858-.072 5.786-.111 1.383-.03 1.795-.273 2.123-1.683.545-2.35.955-4.728.604-7.464m-53.76-.386c0 1.888-.05 3.546.02 5.196.043.953.213 1.913.453 2.84.22.858.85 1.301 1.787 1.317 1.981.032 3.96.121 5.94.163.865.018 1.673-.246 1.887-1.17.31-1.35.506-2.729.68-4.105.04-.317-.123-.875-.348-.976-1.192-.537-1.704-1.563-2.058-2.72-2.72-.316-5.348-.667-8.36-.545m-118.14 142.298c.845.184 1.389.377 1.943.41 1.822.106 3.66.329 5.467.193 5.168-.387 9.35-2.392 11.332-7.587.293-.77.643-1.573.299-2.49-1.224.294-2.39.502-3.511.85-1.947.605-3.881 1.216-5.63 2.347-2.93 1.896-5.931 3.681-8.898 5.52-.257.16-.487.364-1.003.757m274.538-9.21c-1.644 9.609 8.79 18.845 15.7 18.045-.27-.32-.506-.596-.736-.875-2.806-3.385-5.592-6.79-8.428-10.15-1.794-2.127-3.657-4.197-5.51-6.273-.264-.293-.65-.48-1.027-.746M678.356 569.88c-4.514 4.298-8.902 8.556-13.216 13.32h2.504c2.956-.002 5.912.006 8.866-.013 1.299-.01 1.726-.36 2.05-1.583.066-.258.12-.53.12-.796a1890.075 1890.075 0 00-.028-10.288c-.002-.137-.122-.273-.296-.64m18.289 13.232c-4.341-4.252-8.503-8.333-12.67-12.41-.267-.258-.565-.483-.854-.718-.03-.024-.099-.008-.147.003-.053.013-.101.04-.116.044 0 2.69-.018 5.365.01 8.041a36.907 36.907 0 00.197 3.54c.163 1.51.44 1.747 1.933 1.756 2.53.018 5.059.03 7.587-.006 1.263-.02 2.525-.151 4.06-.25M532.26 798.888c.799 0 1.327.068 1.831-.011 3.73-.592 7.412-.23 10.984.836 3.33.993 6.355.283 9.343-1.104.966-.45 1.076-1.164.29-1.864-.348-.31-.813-.52-1.258-.68-1.816-.657-3.622-1.357-5.472-1.893-5.835-1.694-11.631.122-15.718 4.716m75.863-246.136l-.074-.226c-.836.269-1.766.392-2.482.85-.696.444-1.242 1.184-1.73 1.88-1.604 2.282-1.605 2.32.395 4.21 2.743 2.589 6.065 2.74 9.47 1.946 1.774-.413 2.558-1.79 2.517-3.653-.02-.857-.107-1.713-.182-2.567-.126-1.44-.502-1.889-1.98-2.032-1.974-.19-3.956-.277-5.934-.408M834.12 807.414l.073-.557c-2.961-1.82-5.857-3.755-8.9-5.427-2.787-1.533-5.807-2.513-9.017-2.792-1.288-.11-2.544-.164-3.811.543.181.324.293.621.487.85 2.4 2.89 5.226 5.22 8.7 6.735 2.917 1.274 5.945 1.868 9.106 1.515 1.139-.127 2.243-.568 3.36-.867M590.592 583.5c-.033.37-.093.683-.083.995.034 1.12.126 2.24.132 3.36.008 1.392-.177 2.797-.046 4.175.233 2.45 1.706 4.22 3.512 5.765 1.738 1.488 3.746 1.436 5.249-.317.76-.888 1.317-1.954 1.941-2.955.492-.79.328-1.413-.323-2.137a117.904 117.904 0 01-5.08-6.036c-.885-1.127-1.58-2.404-2.354-3.604l-2.948.754m112.725 129.35c.245.49.328.74.477.94.61.818 1.538.978 2.45 1.02 3.11.146 6.222.327 9.333.33 5.804.008 11.607-.163 17.408-.141 5.424.018 10.848.262 16.272.25 1.91-.004 3.826-.422 5.725-.752.81-.141 1.425-.665 1.493-1.697-.34-.063-.59-.144-.842-.15-2.203-.06-4.404-.151-6.606-.143-6.394.02-12.79.098-19.186.128-4.885.022-9.773.004-14.661.006-.536 0-1.074.04-1.611.04-2.307.002-4.61-.02-6.916.002-1.048.01-2.095.1-3.336.166m-147.28 79.816l.272-.31c-.136-.393-.254-.794-.413-1.178-.696-1.69-1.579-3.325-2.07-5.072-.834-2.973-2.698-5.05-5.085-6.837-3.742-2.803-7.47-5.632-10.6-9.154-.12-.133-.333-.18-.666-.352.066.427.064.696.153.931.996 2.61 1.877 5.27 3.037 7.805 2.343 5.115 6.07 9.094 10.688 12.238 1.414.962 3.06 1.454 4.686 1.929m258.927-32.407c-.587 1.27-.99 2.194-1.43 3.102-2.187 4.497-4.445 8.961-6.553 13.496a50 50 0 00-3.629 10.84c-.204.973-.424 1.96-.103 3.138.344-.226.579-.338.76-.506 1.184-1.098 2.374-2.187 3.526-3.316 2.533-2.48 4.49-5.342 5.637-8.724 1.443-4.25 2.479-8.586 2.47-13.099-.005-1.527.115-3.11-.678-4.93m-203.4-181.187c-1.24-.64-2.393-1.186-3.5-1.82-1.118-.637-2.16-1.41-3.288-2.024-.84-.457-1.74-.866-2.66-1.101-1.518-.387-2.509.348-2.993 1.803-.281.844-.788 1.626-1.27 2.386-.36.574-.842 1.07-1.252 1.576.577.915 1.072 1.68 1.544 2.459 1.565 2.581 3.386 4.956 5.61 7.01.913.845.983.869 2.087.242 1.773-1.007 2.778-2.693 3.558-4.448.866-1.947 1.446-4.021 2.164-6.083m218.965 201.374c-10.054 1.274-18.27 5.636-24.333 13.876.75.9 1.716.831 2.577.72 1.75-.226 3.483-.59 5.219-.92 4.184-.794 7.77-2.758 10.87-5.642 2.449-2.276 4.78-4.643 5.667-8.034M596.216 794.81v-5.144c0-4.14-.013-8.28.01-12.418.017-2.744.151-5.488.1-8.227-.02-1.16-.322-2.328-.615-3.461-.203-.784-.788-1.254-1.672-1.258-.428 0-.856-.1-1.284-.11-1.39-.035-1.615.162-1.636 1.521-.06 3.976-.103 7.953-.148 11.928-.016 1.341-.035 2.683-.032 4.024.009 3.333.03 6.667.045 9.997.004 1.006 0 2.014 0 3.148zm75.013-30.104c-.707 1.79-.521 3.514-.464 5.22.073 2.203.359 4.415.22 6.602-.343 5.424-.517 10.848-.45 16.28.006.576.06 1.15.1 1.834h5.205c.092-.682.216-1.302.25-1.928.056-1.02.067-2.04.075-3.062.012-1.934.025-3.867.004-5.799-.033-3.008-.107-6.016-.143-9.024a1056.368 1056.368 0 01-.072-9.19c-.002-.837-.426-1.169-1.206-1.129-1.171.06-2.339.13-3.52.196m32.846-173.762l.18-.452c-.746-.753-1.536-1.466-2.228-2.266-.804-.932-1.744-1.27-2.977-1.258-5.427.054-10.855 0-16.281.028-6.291.035-12.583.184-18.872.134-1.97-.016-3.578.26-4.723 2.024-.405.626-1.055 1.093-1.752 1.79h44.6zm-47.942 204.072c.056-.599.118-.966.118-1.332.01-3.38-.009-6.76.014-10.14.033-4.783.104-9.566.132-14.347.004-.803-.031-1.625-.211-2.4-.39-1.685-.897-2.05-2.659-2.167-.321-.02-.64-.078-.961-.093-1.17-.053-1.407.127-1.636 1.27a5.664 5.664 0 00-.099.962c-.109 4.127-.237 8.255-.309 12.384-.076 4.405-.103 8.813-.144 13.219-.005.59.024 1.181.052 1.77.036.787.437 1.168 1.24 1.12 1.44-.086 2.88-.16 4.463-.246m-9.507.213c.1-2.64.237-4.999.261-7.356.024-2.417-.178-4.84-.076-7.253.184-4.355.275-8.706-.077-13.05-.235-2.897-.72-3.266-3.6-3.284-1.235-.008-1.52.152-1.7 1.42-.264 1.86-.528 3.736-.579 5.612-.12 4.516-.096 9.038-.177 13.556-.047 2.526-.21 5.05-.275 7.575-.024.94-.258 1.92.232 2.779zm-10.137-.083c.141-2.9.326-5.576.39-8.253.144-6.07.231-12.14.332-18.21.01-.535.022-1.082-.072-1.606-.384-2.177-1.08-2.705-3.286-2.559-.268.02-.534.064-.8.094-1.387.153-1.739.348-1.902 1.693-.21 1.748-.266 3.52-.3 5.284-.025 1.23.148 2.467.138 3.699-.016 1.88-.104 3.757-.182 5.634-.129 3.111-.297 6.22-.404 9.334-.054 1.59-.009 3.186-.009 4.89zm-20.556.166c.06-.647.125-1.118.145-1.59.085-1.929.079-3.866.25-5.786.49-5.463.88-10.928.674-16.414-.067-1.706-.21-3.436-.57-5.1-.351-1.62-.834-1.842-2.489-1.924a19.187 19.187 0 01-.96-.077c-1.585-.157-1.856.037-2.176 1.607a6.113 6.113 0 00-.126.957c-.178 4.668-.339 9.335-.523 14.003-.13 3.272-.31 6.541-.423 9.814-.053 1.482-.226 2.991.334 4.51zm88.902-4.786a1.67 1.67 0 00-.081.007c0 .753-.028 1.508.008 2.259.027.556-.22 1.38.53 1.514.914.164.834-.782 1.018-1.338.959-2.912.873-5.954.93-8.95.078-4.244-.091-8.493-.129-12.74-.022-2.577.01-5.153.008-7.729-.004-5.747-.03-11.496-.013-17.244.007-1.719.133-3.436.204-5.153.203-5.101.412-10.203.604-15.303.036-.968.08-1.945-.017-2.904-.107-1.006-.327-2.012-.6-2.99-.207-.747-.816-1.128-1.6-1.102-.778.027-1.107.582-1.262 1.255a4.87 4.87 0 00-.136 1.117c.044 3.334.064 6.668.168 10 .11 3.49.387 6.976.443 10.467.05 3.276-.115 6.556-.15 9.834-.063 5.966-.094 11.934-.151 17.898-.051 5.216-.158 10.432-.156 15.648 0 1.817.248 3.636.382 5.454m-99.066 4.544c.156-2.56.317-5.018.45-7.478.263-4.934.543-9.867.751-14.806.093-2.253.044-4.516-.713-6.689-.438-1.257-1.234-1.976-2.66-1.813-.587.066-1.182.05-1.774.04-.71-.012-1.12.338-1.224 1.016-.165 1.061-.394 2.125-.426 3.193-.147 5.103-.261 10.207-.333 15.312-.047 3.165-.008 6.333.024 9.5.004.52.166 1.036.285 1.725zm20.664.291c.057-.692.105-1.112.126-1.533.235-4.563.6-9.123.654-13.688.05-4.13-.128-8.275-.424-12.396-.192-2.67-1.08-3.27-3.734-3.243l-.322.001c-1.31.043-1.562.13-1.688 1.427-.207 2.133-.256 4.283-.312 6.428-.043 1.717.09 3.441-.004 5.153-.248 4.508-.6 9.011-.863 13.518-.081 1.376-.013 2.761-.013 4.298 2.298.158 4.362.078 6.58.035m40.209-.465c.07-1.984.139-3.794.193-5.603.094-3.113.087-6.233.299-9.337.21-3.067.343-6.127-.12-9.168-.24-1.587-.647-3.16-1.125-4.694-.4-1.274-.886-1.486-2.183-1.393-.427.03-.855.064-1.281.05-1.27-.04-1.52.055-1.724 1.343-.296 1.855-.556 3.73-.616 5.603-.104 3.28-.008 6.565-.063 9.847-.045 2.794-.253 5.586-.26 8.38-.003 1.646.248 3.293.387 4.973zm88.233-71.096l.177.001c0-.914.014-1.83-.006-2.745-.01-.427-.042-.863-.147-1.275-.136-.53-.37-1.037-1.028-1.086-.657-.05-.99.388-1.16.924-.157.508-.285 1.044-.307 1.573a359.751 359.751 0 00-.188 7.395c-.066 4.192-.098 8.383-.154 12.574-.007.428-.084.856-.11 1.284-.126 2.037-.454 4.088-.318 6.108.21 3.165.373 6.31.314 9.49-.07 3.645.327 7.297.423 10.949.147 5.697.219 11.397.307 17.094.033 2.046.013 4.091.046 6.135.01.588.044 1.196.208 1.753.083.284.474.66.731.667.27.003.58-.357.81-.613.129-.146.158-.399.186-.611.185-1.436.505-2.873.515-4.312.05-8.233.03-16.467.018-24.701a155.628 155.628 0 00-.112-4.987c-.1-3.007-.322-6.012-.313-9.016.016-4.623.216-9.244.272-13.866.027-2.15-.127-4.3-.157-6.448-.03-2.094-.007-4.191-.007-6.287m-61.87-109.447c.068-1.457.197-2.892.192-4.326a589.783 589.783 0 00-.14-10.64c-.02-.91-.087-1.837-.3-2.717-.402-1.667-1.314-2.2-3.063-2.12-1.61.07-3.224.037-4.836.053-.43.001-.86.013-1.29.01-.662-.007-1.011.35-1.043.974-.115 2.25-.274 4.503-.288 6.755-.02 3.218.066 6.44.118 9.66.012.729.06 1.458.099 2.351zm-14.475-.037c.036-2.725.092-5.187.093-7.65.003-2.142-.05-4.284-.093-6.426-.027-1.396.013-2.8-.141-4.182-.128-1.128-.507-1.422-1.58-1.436-2.25-.031-4.503-.048-6.75.044-1.781.073-1.797.229-2.165 1.946-.437 2.038-.187 4.064-.09 6.1.163 3.54.303 7.083.477 10.623.056 1.15.236 1.26 1.365 1.262 1.5.003 3.003.107 4.501.064 1.379-.038 2.755-.212 4.383-.345m91.52 40.661c-.19.302-.338.427-.347.562-.187 2.409-.423 4.817-.507 7.229-.124 3.539-.17 7.08-.177 10.621-.004 1.606.063 3.227.288 4.814.172 1.213.625 1.534 1.693 1.552 2.206.034 4.41 0 6.614.014.8.006 1.342-.344 1.626-1.07.176-.447.318-.912.423-1.382.64-2.822.4-5.67.147-8.506-.295-3.294-1.663-6.071-4.112-8.334-1.539-1.424-2.974-2.96-4.462-4.437-.362-.359-.76-.683-1.186-1.063m-177.69-.634c-.487.368-.76.528-.975.744-2.285 2.273-4.552 4.562-6.844 6.828-.964.953-1.467 2.101-1.617 3.426-.16 1.387-.355 2.771-.462 4.16-.216 2.806-.042 5.591.696 8.315.408 1.497.74 1.744 2.24 1.808 1.93.081 3.866.085 5.795.192.716.04 1.15-.233 1.377-.843.187-.496.36-1.022.392-1.545.094-1.608.19-3.223.155-4.83-.124-5.64-.299-11.277-.467-16.914-.013-.353-.15-.704-.29-1.341m65.506-36.336v-.074c.968 0 1.937-.026 2.904.008.816.028 1.37-.196 1.423-1.116.05-.885.504-1.586 1.277-1.92.837-.36.901-.968.863-1.697-.059-1.127-.123-2.253-.176-3.38-.166-3.436-.282-6.874-.52-10.304-.071-1.05-.428-2.092-.739-3.11-.24-.78-.875-1.154-1.661-1.367-2.072-.567-4.038-.2-5.995.517-.907.334-1.453.907-1.512 1.876-.104 1.662-.273 3.326-.256 4.987.044 4.293.176 8.586.27 12.88.013.482-.02.97.011 1.45.071 1.134.254 1.276 1.371 1.254.913-.018 1.827-.004 2.74-.004m49.407-9.898c0-2.476.065-4.954-.024-7.426-.055-1.499-.307-2.995-.551-4.477-.13-.782-.553-1.42-1.483-1.444-2.096-.054-4.192-.098-6.288-.155-.693-.02-1.16.295-1.308.95-.24 1.045-.557 2.102-.581 3.16-.108 4.84-.116 9.684-.183 14.526-.013.764.216 1.29.859 1.768a3.493 3.493 0 011.13 1.51c.253.684.685.86 1.306.976 1.937.364 3.857.135 5.773-.13 1.306-.182 1.334-.21 1.343-1.507.02-2.583.005-5.167.007-7.75m-60.667 106.413v.006c1.13 0 2.261-.03 3.39.006 2.846.088 5.69.224 8.537.298 1.661.044 2.14-.232 2.572-1.821.26-.953.193-2.003.21-3.01.008-.475-.218-.96-.188-1.431.071-1.088-.501-1.738-1.382-2.147-.627-.29-1.304-.573-1.978-.633-2.193-.19-4.394-.368-6.592-.38-4.349-.022-8.698.077-13.048.118-1.624.016-2.138.347-2.346 1.968-.17 1.323-.166 2.68-.108 4.016.097 2.32.586 2.887 2.878 2.982 2.68.11 5.371.026 8.054.026m-30.002.69c2.176-.074 4.534-.158 6.892-.231 1.984-.061 3.97-.067 5.951-.173 1.653-.09 2.45-.782 2.383-2.22a25.504 25.504 0 00-.61-4.606c-.377-1.6-1.54-2.318-3.206-2.298-1.127.013-2.254.029-3.382.03-5.26.004-10.522-.01-15.784.01-1.936.005-2.436.32-2.814 2.16-.312 1.51-.374 3.077-.498 4.622-.124 1.514.27 2.038 1.746 2.384.466.11.954.147 1.436.17a123.353 123.353 0 003.848.148c1.285.022 2.572.004 4.038.004m59.212 42.703c-.748 0-1.328-.013-1.906.003-.966.03-1.934.127-2.896.112-2.682-.04-5.362-.14-8.043-.185-3.756-.064-7.512-.147-11.267-.136-8.7.024-17.402.094-26.104.157-1.233.01-2.466.123-3.698.12-1.827-.007-3.667-.239-5.474-.079-4.356.387-8.688.095-13.03-.14-3.913-.213-7.83-.348-11.747-.508-.144-.006-.293.103-.506.187-.238.923-.307 1.84.137 2.916 2.473.05 4.933.124 7.395.136 1.767.008 3.537-.119 5.305-.093 5.157.074 10.313.218 15.47.29 3.276.047 6.552.007 9.827.018 2.04.006 4.08.066 6.12.042 3.7-.042 7.4-.218 11.097-.172 3.703.046 7.403.382 11.106.435 4.122.059 8.256.133 12.349-.581.4-.07.84.12 1.264.141 1.487.08 2.973.141 4.6.215zm-91.627 20.68h.145c0 4.515-.007 9.03.008 13.547.003.64.09 1.281.18 1.917.076.554.43.808.99.876 1.322.16 1.75-.216 1.742-1.592-.019-2.9-.077-5.8-.047-8.701.074-6.612.219-13.223.278-19.835.022-2.578-.108-5.157-.168-7.737-.006-.213-.007-.43-.027-.644-.56-5.996-.59-12.01-.613-18.024-.002-.43.02-.86.046-1.29.147-2.304.39-4.607.434-6.914.104-5.43.109-10.864.168-16.296.012-1.02.22-2.053.104-3.053a17.644 17.644 0 00-.882-3.707c-.128-.37-.822-.704-1.28-.73-.25-.016-.601.608-.797 1-.163.322-.21.725-.228 1.097-.135 2.897-.316 5.796-.35 8.696-.037 3.11.062 6.223.123 9.335.038 1.934.142 3.866.163 5.8.012.965-.148 1.932-.133 2.894.077 4.947.24 9.89.266 14.835.027 4.94-.093 9.881-.117 14.822-.023 4.568-.005 9.136-.005 13.704m98.5 15.904c.082-.356.186-.608.191-.861.07-3.544.139-7.087.182-10.63.09-7.583-.142-15.158-.471-22.734-.21-4.779-.116-9.572-.18-14.357-.04-2.956-.053-5.916-.203-8.867-.165-3.23-.142-6.438.258-9.658.237-1.912.24-3.862.25-5.794.01-1.986-.125-3.973-.15-5.96-.03-2.314.042-4.63-.04-6.941a4.239 4.239 0 00-.667-2.084c-.539-.819-1.347-.659-1.683.253a4.687 4.687 0 00-.285 1.415c-.077 2.033-.112 4.07-.165 6.104-.16 5.963-.394 11.925-.454 17.89-.05 5.203.091 10.408.16 15.612.027 1.99.091 3.978.131 5.966.05 2.47.104 4.941.133 7.413.019 1.447-.018 2.895-.005 4.343.027 3.061.08 6.124.11 9.186.018 1.988.011 3.978.026 5.967.021 3.005.057 6.01.079 9.015.01 1.537 0 3.076 0 4.722zm-63.551-245.686c.104-1.332.238-2.604.292-3.878.05-1.182.03-2.366.006-3.547-.013-.72-.406-1.013-1.146-1.012-3.75.005-7.5-.02-11.25-.044-.536-.003-1.072-.059-1.606-.093-2.034-.134-4.067-.371-6.099-.383-3.434-.02-6.87.095-10.306.164-.467.01-.934.08-1.442.125-.466 2.91-.34 5.711-.365 8.579 1.057 0 1.905.004 2.753 0 .803-.003 1.606-.03 2.408-.017 4.026.068 8.05.144 12.076.218 2.519.048 5.037.107 7.556.142 2.296.03 4.603.354 7.123-.254M776.12 785.505l-.183.007c.119 2.573.216 5.146.364 7.717.072 1.263 1.036 1.84 2.087 1.23.377-.22.728-.687.845-1.111.216-.766.35-1.586.337-2.379-.06-4.19-.249-8.381-.257-12.572-.007-3.488.213-6.976.265-10.464.131-9.084.24-18.168.32-27.252.02-2.04-.186-4.085-.14-6.125.112-5.213.323-10.423.466-15.636.024-.91-.12-1.823-.144-2.733-.071-2.684-.059-5.37-.218-8.047-.045-.741-.429-1.576-.914-2.15-.663-.782-1.486-.47-1.73.551a9.633 9.633 0 00-.27 1.752c-.234 4.718-.53 9.432-.644 14.152-.148 6.13-.179 12.267-.19 18.397-.009 3.98.118 7.96.156 11.94.01.964-.152 1.932-.137 2.895.08 5.535.259 11.068.267 16.603.008 4.408-.179 8.816-.28 13.224m-77.195-151.445c1.182-.555 2.252-1.027 3.163.126a1.973 1.973 0 01.092 2.263c-.824 1.256-1.987.63-3.215.46.059 1.215-.237 2.355.234 3.623.436-.34.738-.63 1.09-.84a1.987 1.987 0 012.61.47 2.024 2.024 0 01-.067 2.53c-.681.782-1.641.873-2.603.24-.29-.19-.57-.387-1.162-.794l.516 7.83c.168 2.536-.3 5.085-.06 7.708.544-.132.849-.24 1.16-.278 1.238-.149 2.348.68 2.428 1.791.08 1.139-.884 1.965-2.27 1.924-.408-.012-.814-.077-1.23-.117v5.053c2.916.39 5.66.335 8.474.097-.06-1.128-.47-2.157.462-2.996.906-.816 1.886-.31 3.02-.118-.067-.752-.12-1.334-.176-1.979-2.707 1.108-3.524.413-4.018-2.003-1.92-.58-2.67-1.312-2.49-2.425.138-.864 1.192-1.823 2.01-1.827 1.014-.008 1.664.819 2.086 2.66l2.136.814v-17.11l-2.52 1.42c0 .426.13.956-.031 1.375-.195.507-.544 1.08-.99 1.336-.857.493-2.027.021-2.5-.84-.503-.916-.193-2.157.727-2.676.4-.227.876-.324 1.299-.473-.264-2.438 1.03-3.858 4.047-1.878 0-3.074-.05-6 .013-8.926.063-2.928.279-5.856-.035-8.888-2.082 0-4.002-.034-5.921.01-1.964.044-3.927.163-5.963.254v2.241c.49-.125.846-.235 1.208-.305.836-.16 1.478.165 1.93.858.444.68.378 1.804-.126 2.434-.525.654-1.193.885-2.01.636l-1.32-.408zm-45.148 96.928v-.184h4.03c.106 0 .213 0 .322-.007 1.747-.13 3.102-1.187 3.143-2.67.063-2.3.017-4.607-.06-6.91-.036-1.077-.687-1.797-1.756-2.032a12.36 12.36 0 00-1.907-.239c-.749-.045-1.504-.002-2.253-.04-2.84-.141-5.675-.378-8.513-.43-2.682-.046-5.364.11-8.047.156-1.984.033-2.824.565-2.983 2.562-.22 2.774-.189 5.57-.182 8.358.002.9.522 1.298 1.461 1.408.424.049.857.026 1.287.028h15.458m29.564 70.57c1.296.045 2.406.108 3.516.12 1.979.02 3.958.013 5.934.013.645 0 1.29.002 1.933-.029 1.61-.077 3.22-.243 4.83-.244 3.225-.003 6.451.036 9.675.143 3.006.098 6.007.349 9.012.453 3.116.104 6.236.141 9.354.153 5.59.022 11.182-.012 16.773.006 1.986.008 3.992.301 5.954.11 3.911-.382 7.807-.737 11.742-.43 1.173.09 2.362.066 3.542.029 3.115-.092 6.23-.213 9.343-.339.352-.013.7-.118 1.133-.196-.06-.582-.06-1.069-.17-1.53-.274-1.138-.728-1.539-1.924-1.563-3.71-.07-7.422-.173-11.13-.12-5.264.073-10.525.33-15.79.407-3.494.05-6.99-.098-10.484-.118-4.19-.024-8.383-.022-12.575-.002-6.453.032-12.906.138-19.36.12-4.084-.012-8.166-.238-12.25-.29-2.467-.03-4.936.098-7.406.134-1.237.016-1.512.208-1.644 1.4-.053.469-.008.95-.008 1.773m-51.48-75.766h.076c0-1.075.052-2.152-.01-3.223-.16-2.692-.91-3.692-3.396-3.613-3.863.122-7.726.254-11.59.32-2.086.033-4.176-.086-6.264-.098-1.013-.006-2.05-.045-3.036.142-1.814.346-2.373 1.014-2.437 2.856a128.296 128.296 0 00-.036 6.446c.025 1.648.368 2.123 2.003 2.35a29.125 29.125 0 004.972.286c4.396-.146 8.785-.446 13.186-.004 1.491.15 3.01.094 4.511.028 1.56-.065 1.947-.5 2.01-2.105.046-1.127.01-2.257.01-3.385m25.219-59.686c-.662-2.101-.575-2.733.346-3.466.658-.526 1.454-.6 2.084-.131 1.32.983 1.156 2.248.412 3.69l2.41.313v-4.784c-1.231.293-2.32.777-3.147-.32-.463-.616-.473-1.334-.081-1.974.776-1.265 1.946-1.076 3.101-.58.416-2.506.416-11.765.027-12.888-1.584.818-2.432.787-3.147-.122-.544-.694-.561-1.902-.035-2.564.667-.84 1.631-.816 3.318.084.705-1.803.398-19.012-.418-21.199h-10.889c-.253.848-.587 1.61-.059 2.507.304-.25.498-.43.712-.58.986-.692 1.888-.662 2.61.076.664.677.764 1.893.221 2.681-.593.867-1.699 1.093-2.723.547-.309-.166-.6-.367-1.072-.658-.364 8.944-.24 17.694-.2 26.442.003.288.187.573.294.88 1.693-1.064 2.554-1.12 3.37-.267.622.65.694 1.963.111 2.684-1.213 1.499-2.335.459-3.501-.312-.402 2.41-.398 4.663-.195 7.173 1.16-.833 2.159-1.112 3.21-.477 1.171.707.878 1.807.517 3.015l2.724.23m98.775-25.406c-.188.55-.329.792-.349 1.046-.144 1.767-.323 3.534-.376 5.304a476.532 476.532 0 00-.155 9.664c-.028 2.96-.005 5.92-.03 8.878-.034 3.596-.15 7.192-.12 10.788.016 2.048 1.008 3.097 3.044 3.26 1.87.149 3.76.085 5.64.128.713.017 1.116-.314 1.221-1.006.163-1.064.412-2.125.448-3.193.153-4.461.239-8.924.35-13.387.018-.698.02-1.398.078-2.093.235-2.752.143-5.48-.459-8.185-.37-1.671-1.097-3.119-2.346-4.323-1.782-1.719-3.507-3.496-5.26-5.245-.486-.484-.987-.958-1.686-1.636m-148.429-.66l-.453-.17c-.543.412-1.144.772-1.621 1.252a414.314 414.314 0 00-7.087 7.274c-.418.442-.677 1.09-.866 1.688-.807 2.546-.882 5.192-.863 7.826.027 4.139.168 8.278.239 12.418.03 1.882-.036 3.768.026 5.649.027.792.178 1.613.45 2.356.372 1.005 1.066 1.707 2.278 1.728 1.985.037 3.97.18 5.956.193 1.2.01 1.61-.39 1.805-1.616.134-.846.206-1.71.214-2.568.026-3.114.026-6.229.017-9.342-.017-4.731-.075-9.46-.07-14.191.003-2.63.127-5.259.138-7.89.005-1.534-.107-3.071-.163-4.607m68.174 113.88c.066-.38.164-.691.164-1 .005-3.493-.011-6.985-.01-10.475 0-6.345-.081-12.693.075-19.035.044-1.8-.49-3.07-1.657-4.3-1.814-1.91-3.528-3.91-5.312-5.846-1.074-1.166-2.2-2.283-3.434-3.56-.514 1.313-.36 2.38-.324 3.442.054 1.61.094 3.223.083 4.835-.021 3.117-.315 6.253-.08 9.35.472 6.191-.01 12.352-.147 18.528-.046 2.088.094 4.19.296 6.271.127 1.32.851 1.833 2.163 1.93 1.017.077 2.033.227 3.05.234 1.705.013 3.425.093 5.134-.373m-84.794-.85c.316.194.36.244.408.246 2.677.09 5.354.217 8.032.22.394 0 .926-.506 1.16-.912.857-1.476 1.131-3.134 1.1-4.814-.06-3.166-.28-6.332-.289-9.497-.013-4.618.072-9.238.168-13.857.094-4.564.276-9.124.368-13.688.02-.927.167-1.917-.493-2.992-.62.632-1.224 1.147-1.706 1.756-2.603 3.283-5.162 6.6-7.77 9.877-.61.766-.842 1.574-.828 2.53.03 1.88.048 3.762-.022 5.64-.118 3.112-.383 6.217-.45 9.327-.08 3.814-.053 7.628-.002 11.442.02 1.597.213 3.193.324 4.721m92.733 62.193c-.45 1.327-.124 2.38.185 3.39.105.346.66.748 1.043.786 3.26.324 6.524.707 9.796.796 2.62.072 5.25-.306 7.88-.369 3.22-.073 6.446-.03 9.669-.024 1.987.003 3.973.036 5.96.047 2.684.013 5.368-.007 8.05.034 2.31.036 4.622.246 6.929.187 3.111-.083 6.218-.381 9.331-.523 2.147-.096 4.3-.085 6.451-.12 2.787-.049 5.573-.124 8.36-.137 5.859-.027 11.716-.013 17.573-.04.52-.003 1.035-.164 1.654-.267.104-1.645.178-3.164-.067-4.778-.76 0-1.347-.007-1.933.001-2.688.035-5.378.053-8.064.116-3.49.081-6.978.21-10.467.296-3.116.077-6.233.215-9.35.165-4.02-.062-8.04-.328-12.06-.418-2.04-.046-4.082.081-6.122.168-2.63.113-5.257.266-7.885.4-1.664.082-3.325.186-4.99.234-2.473.075-4.949.043-7.418.178-5.803.32-11.595.261-17.395-.098-2.346-.145-4.709-.024-7.129-.024m114.84-115.527c-.53-.07-.84-.146-1.151-.147-4.301-.036-8.604-.101-12.907-.077-4.514.024-9.029.193-13.546.188-3.167-.004-6.334-.274-9.503-.288a3261.81 3261.81 0 00-26.788-.008c-8.226.028-16.453.109-24.68.18-1.826.017-3.662-.006-5.48.164-4.978.464-9.97.436-14.96.46-3.869.02-7.74-.126-11.609-.16-7.47-.063-14.941-.138-22.413-.136-9.895 0-19.79.076-29.687.11-3.923.014-7.845-.04-11.768.007-7.04.083-14.076.243-21.114.325-7.792.094-15.584.127-23.378.2-1.342.014-2.685.098-4.028.139-.526.016-.997.107-1.008.761-.013.65.467.782.98.819.643.048 1.287.108 1.93.104 5.426-.039 10.85-.1 16.276-.13 1.557-.007 3.116.13 4.673.1 2.893-.057 5.785-.235 8.68-.275 3.704-.05 7.41-.012 11.114-.012 3.866 0 7.732.017 11.6-.004 6.29-.034 12.582-.091 18.872-.14.324-.003.646-.022.968-.03 3.6-.093 7.2-.313 10.796-.25 4.291.073 8.576.51 12.867.57 6.717.095 13.436.018 20.153-.013 3.49-.016 6.979-.09 10.467-.133 3.916-.051 7.832-.086 11.747-.146 3.006-.045 6.013-.126 9.018-.173 3.71-.06 7.419-.105 11.128-.145 1.768-.02 3.538.002 5.306-.016 3.92-.046 7.838-.14 11.758-.144 2.847-.003 5.693.153 8.541.15 3.331 0 6.664-.186 9.994-.133 3.973.067 7.944.287 11.914.468 3.806.175 7.616-.345 11.418.13.21.027.429-.018.644-.018 3.169 0 6.34.005 9.509-.003 1.16-.002 2.341.215 3.57-.182l.097-2.112M620.698 626.38c-.586.52-.953.815-1.285 1.144-1.792 1.781-3.525 3.628-5.381 5.341-1.344 1.243-2.062 2.72-2.282 4.49-.098.8-.257 1.6-.284 2.401-.177 5.367-.374 10.735-.462 16.103-.055 3.28.066 6.56.126 9.837.051 2.85.115 5.696.19 8.544.02.752.01 1.52.162 2.25.648 3.123 1.418 3.683 3.96 3.602a119.213 119.213 0 003.383-.143c1.303-.08 1.635-.297 1.812-1.578.263-1.912.512-3.84.547-5.766.057-3.117-.056-6.236-.115-9.354-.027-1.342-.17-2.684-.128-4.023.115-3.704.45-7.408.421-11.11-.053-6.877-.302-13.754-.48-20.63-.005-.256-.08-.51-.184-1.107m155.62 179.347c-2.027-.44-3.888-.444-5.768-.304-2.996.221-5.976.534-9.007.257-2.34-.213-4.774-.31-7.072.087-3.938.681-7.829.126-11.74.12-3.976-.007-7.952.013-11.927-.006-5.588-.025-11.175-.036-16.762-.13-2.682-.046-5.364-.383-8.046-.387-6.291-.01-12.583.096-18.874.164-.913.01-1.826.061-2.737.11-.535.027-.953.22-.955.85-.005 1.547-.002 3.09-.002 4.75h1.293c1.667.009 3.337-.029 5.003.035 3.324.126 6.646.438 9.968.435 5.644-.003 11.286-.19 16.929-.301.267-.006.536-.04.803-.071 3.42-.397 6.848-.68 10.298-.576 1.45.044 2.904 0 4.358 0 3.542 0 7.087-.025 10.63.01 1.557.015 3.115.25 4.667.217 3.922-.08 7.84-.304 11.762-.386 4.72-.098 9.447-.101 14.17-.166.75-.01 1.498-.12 2.246-.196.49-.05.818-.31.818-.823-.002-1.223-.034-2.447-.055-3.69M648.177 754.06v-.141h8.87c3.283 0 3.422-.114 3.886-3.463.103-.744.132-1.499.168-2.25.05-1.02.063-2.04.107-3.062.116-2.524.28-5.047.346-7.572.051-1.812-.394-2.266-2.221-2.453-1.068-.107-2.144-.19-3.216-.184-5.915.04-11.83.112-17.743.173-2.313.023-2.94.627-3.024 2.973-.034.966-.004 1.936-.01 2.904-.01 1.347-.043 2.691-.04 4.036.008 2.203-.042 4.41.08 6.607.11 1.99.652 2.42 2.63 2.428 3.388.015 6.778.004 10.167.004m-16.641-12.677h.18c0-.862.053-1.726-.014-2.582-.178-2.338-1.102-3.231-3.454-3.358a116.453 116.453 0 00-5.15-.187c-2.954-.03-5.908-.026-8.86 0a197.07 197.07 0 00-6.762.16c-1.884.08-2.538.724-2.464 2.61.165 4.24.406 8.478.665 12.714.045.74.296 1.475.516 2.192.244.8.82 1.26 1.665 1.29 1.772.063 3.56.266 5.315.115 4.612-.396 9.22-.105 13.83-.08 2.933.015 3.805-.608 4.306-3.538.107-.636.21-1.28.216-1.923.025-2.47.01-4.941.01-7.413M741.01 626.99c-.101.396-.19.586-.193.778-.087 3.92-.154 7.838-.246 11.756-.14 6.011-.309 12.023-.44 18.035-.024 1.179.104 2.361.111 3.541.021 4.675-.008 9.35.063 14.022.012.829.38 1.662.64 2.474.377 1.171 1.237 1.682 2.448 1.707 1.557.028 3.113.113 4.67.137 1.772.028 2.182-.25 2.456-2.024.302-1.958.527-3.937.638-5.916.133-2.412.133-4.833.16-7.25.07-6.554.133-13.107.18-19.66.018-2.534-.2-5.038-.952-7.48-.355-1.158-.84-2.196-1.735-3.035-2.157-2.02-4.288-4.067-6.445-6.087-.37-.346-.822-.609-1.355-.998m-14.453-14.035c-.144.48-.272.716-.281.957-.055 1.448-.127 2.9-.114 4.348.047 4.887.17 9.774.186 14.66.016 4.614-.147 9.224-.084 13.835.053 3.92.357 7.835.47 11.753.13 4.404.174 8.81.248 13.214.03 1.72-.084 3.449.094 5.152.202 1.956 1.024 2.96 3.005 2.646 1.155-.184 2.359-.058 3.54-.074 1.565-.02 1.912-.167 2.245-1.71a25.467 25.467 0 00.579-4.784c.08-3.758.026-7.52.026-11.28 0-2.573-.032-5.149.012-7.724.08-4.565.244-9.13.298-13.697a128.852 128.852 0 00-.15-8.057c-.125-2.463-.233-4.95-.696-7.36-.382-1.986-1.237-3.906-2.682-5.424-1.223-1.283-2.524-2.492-3.801-3.723-.907-.872-1.827-1.725-2.894-2.732m-77.037-14.206l-.38-.21c-.42.38-.853.748-1.259 1.144-1.73 1.694-3.36 3.507-5.206 5.059-1.858 1.564-2.762 3.401-2.974 5.814-.646 7.416-.149 14.835-.2 22.251-.026 3.752.223 7.508.152 11.257-.1 5.48-.486 10.956-.549 16.436-.053 4.507.139 9.019.33 13.524.06 1.428.418 2.855.743 4.258.168.726.715 1.15 1.546 1.165 1.986.036 3.972.148 5.96.168 1.373.015 1.666-.23 2.056-1.556.133-.457.169-.95.2-1.427a71.7 71.7 0 00.168-3.382c.018-.996-.034-1.994-.054-2.971-.353-.063-.506-.112-.662-.116-2.231-.07-2.83-.79-2.758-2.957.138-4.084.214-8.171.248-12.256.019-2.256-.12-4.514-.156-6.77a200.757 200.757 0 01-.002-4.99c.061-6.723.13-13.447.194-20.17.008-.86-.014-1.718-.008-2.574.012-1.359.596-2.058 1.942-2.355l1.034-.225-.365-19.117m61.768 18.53c.376.099.781.23 1.196.307 1.193.221 1.86 1.01 2.233 2.086.139.4.219.843.222 1.267.016 2.632 0 5.264 0 7.896 0 6.4-.082 12.803.024 19.2.106 6.503.386 13.001.617 19.501.067 1.93-.859 2.98-2.84 3.116-.355.024-.707.12-1.141.196-.067 2.063-.223 4.044-.167 6.02.05 1.71 1.096 2.571 2.799 2.576 2.2.008 4.402-.026 6.604.014.89.014 1.445-.292 1.632-1.18.212-.998.558-1.987.605-2.994.125-2.624.137-5.253.157-7.882.019-2.583.047-5.167-.026-7.747-.175-6.343-.443-12.68-.6-19.02-.083-3.384.004-6.772-.018-10.159-.037-6.018.186-12.033-.71-18.037-.467-3.125-1.68-5.787-3.675-8.079-1.688-1.94-3.65-3.638-5.507-5.429-.293-.28-.658-.48-1.018-.736-.6 1.464-.88 16.75-.387 19.084m-44.775 24.33h28.743c.027-.554.088-1.13.076-1.705-.048-2.042-.195-4.085-.168-6.126.044-3.547.2-7.094.29-10.64.038-1.496.089-2.998-.353-4.432-9.716-.818-19.352-.044-29.066-.09l.478 22.992m-31.17-29.676c-.618.424-.96.592-1.214.844-2.366 2.347-4.762 4.664-7.048 7.087-.63.668-1.096 1.613-1.333 2.512-1.057 4.036-1.45 8.139-1.027 12.313.171 1.655.29 3.326.271 4.988-.06 5.27-.227 10.538-.293 15.807a570.97 570.97 0 00-.006 11.608c.024 2.957.115 5.913.184 8.87.01.374.05.753.12 1.122.326 1.764 1.292 2.628 3.087 2.673a112.698 112.698 0 004.84.004c1.379-.024 1.87-.372 2.12-1.709.267-1.423.519-2.873.528-4.313.023-3.711-.14-7.422-.135-11.131.006-3.817.12-7.635.19-11.453.004-.16.046-.32.052-.48.13-3.92.362-7.84.357-11.76-.01-5.856-.187-11.71-.293-17.567-.047-2.523-.087-5.047-.152-7.57-.015-.515-.136-1.029-.248-1.845m30.834 57.271c9.943.36 19.574-.567 29.262-.019.08-.378.186-.68.2-.986.066-1.342.124-2.684.149-4.027.07-3.65.107-7.299.185-10.947.05-2.362-.072-4.706-.51-7.162-.566-.036-1.086-.078-1.608-.103-.964-.048-1.93-.099-2.895-.127-2.628-.077-5.256-.178-7.885-.197-1.987-.013-3.974.11-5.96.125-3.114.027-6.227-.01-9.34.027-1.383.013-1.53.187-1.574 1.619-.081 2.684-.146 5.37-.18 8.056-.01.856.146 1.713.15 2.57.017 3.644.006 7.287.006 11.171m8.311-107.317c-.547.495-.987.87-1.4 1.273-.997.975-1.961 1.987-2.98 2.939-2.51 2.347-5.113 4.596-7.552 7.013-2.441 2.422-4.673 5.054-7.096 7.495-4.313 4.347-8.688 8.635-13.061 12.921-2.724 2.67-5.499 5.29-8.24 7.942a716.409 716.409 0 00-5.187 5.077c-1.263 1.245-2.47 2.546-3.768 3.756-2.824 2.634-5.364 5.56-8.35 8.033-1.275 1.057-2.295 2.415-3.483 3.581-4.107 4.03-8.258 8.01-12.343 12.058-3.21 3.181-6.312 6.468-9.52 9.648-3.777 3.746-7.657 7.388-11.424 11.146-5.52 5.507-10.96 11.094-16.468 16.608-4.482 4.488-9.016 8.928-13.533 13.382-.533.528-1.115 1.01-1.656 1.533-.44.427-.579.95-.152 1.437.797.915 1.645 1.787 2.532 2.742.533-.471.903-.774 1.244-1.104 1.619-1.57 3.216-3.163 4.847-4.72 3.533-3.382 7.226-6.6 10.386-10.358.587-.698 1.23-1.352 1.859-2.016 2.88-3.042 5.733-6.113 8.661-9.113 2.852-2.924 5.77-5.787 8.68-8.653 3.487-3.434 7-6.838 10.496-10.264a8676.75 8676.75 0 0013.683-13.458c2.49-2.453 4.972-4.916 7.45-7.38 4.875-4.854 9.738-9.72 14.626-14.564 1.261-1.246 2.613-2.398 3.9-3.62 2.336-2.22 4.64-4.474 6.981-6.689 3.787-3.584 7.644-7.093 11.377-10.733 3.463-3.38 6.804-6.884 10.195-10.337.865-.88 1.693-1.8 2.57-2.672 2.973-2.956 5.971-5.888 8.935-8.854.834-.834.844-1.07.091-1.896-.677-.741-1.467-1.381-2.3-2.153m140.24 124.89c-.562-.612-1.08-1.216-1.64-1.781a1931.833 1931.833 0 00-7.731-7.773c-2.89-2.892-5.744-5.822-8.701-8.64-5.798-5.528-11.804-10.834-17.392-16.587-3.52-3.625-7.227-7.075-10.87-10.579-2.52-2.422-5.093-4.79-7.613-7.21-3.685-3.538-7.348-7.096-11.016-10.65-2.973-2.88-5.91-5.8-8.92-8.64-3.988-3.768-8.045-7.458-12.05-11.206-1.332-1.248-2.578-2.587-3.883-3.867-4.347-4.25-8.701-8.49-13.048-12.74-2.693-2.633-5.45-5.205-8.045-7.93-4.64-4.872-9.398-9.614-14.378-14.134-2.826-2.566-5.777-5.004-8.1-8.076-.209-.277-.548-.456-.833-.685l-3.28 3.004c1.584 1.45 2.96 2.716 4.344 3.979 1.35 1.232 2.737 2.424 4.044 3.698 2.501 2.44 4.932 4.95 7.439 7.383 3.393 3.295 6.87 6.503 10.24 9.823 3.44 3.392 6.762 6.906 10.192 10.31 3.55 3.524 7.196 6.95 10.749 10.472 3.053 3.027 5.99 6.17 9.057 9.18 3.683 3.615 7.437 7.155 11.181 10.707 4.644 4.402 9.327 8.764 13.955 13.184 2.876 2.748 5.68 5.573 8.52 8.36 1.301 1.276 2.636 2.52 3.913 3.82 2.787 2.837 5.543 5.706 8.32 8.552 1.874 1.922 3.759 3.833 5.643 5.749 1.919 1.953 3.767 3.987 5.773 5.847 4.732 4.386 9.528 8.706 14.323 13.024 2.352 2.12 4.757 4.177 7.123 6.249 1.293-.636 1.412-.759 2.685-2.843m-30.837 107.021c.124.748.632.768 1.176.787 3.705.11 7.409.261 11.114.347 1.883.041 2.064-.159 2.44-2.02.054-.264.134-.532.126-.796-.114-4.124.486-8.284-.647-12.36-.137-.496-.055-1.067-.007-1.596.416-4.606.724-9.212.451-13.843-.093-1.552-.013-3.115.003-4.672.006-.644.089-1.29.066-1.932-.149-4.243-.424-8.485-.458-12.73-.072-8.82-.04-17.642-.014-26.463.011-3.603.118-7.207.166-10.81.006-.567-.072-1.135-.112-1.73h-2.939c.647.467 1.036.727 1.403 1.015.604.476.864 1.1.665 1.857-.183.695-.696 1.075-1.37 1.217a7.58 7.58 0 01-1.277.14 25.68 25.68 0 01-1.922.007c-2.974-.117-6.036 1.3-8.908-.693 0 1.668.021 3.164-.004 4.66-.098 5.754-.244 11.506-.31 17.26-.133 11.509-.224 23.018-.333 34.527-.01 1.347.032 2.694-.03 4.036-.309 6.726-.013 13.443.258 20.16.017.44.167.874.31 1.582 1.322-1.566 2.875-1.954 4.525-1.958 2.418-.005 4.837.08 7.256.138.265.006.544.036.789.125 1.273.461 1.553 1.67.65 2.683a3.573 3.573 0 01-2.554 1.23c-1.5.067-3.007-.013-4.51-.021-.74-.004-1.498-.088-2.218.037-2.053.358-2.047.394-3.787-.184m-213.922-3.302l.012-.276c-.422-.207-.893-.351-1.262-.63-1.204-.91-1.01-2.874.398-3.253 1.938-.525 3.97-.563 5.894.024 1.604.49 1.832 2.163.594 3.303-.21.193-.43.378-.797.702.659.087 1.079.176 1.503.191.822.032 1.478.315 1.78 1.13.25.683-.064 1.513-.92 2.049-.522.326-1.175.512-1.792.597-.74.104-1.507-.004-2.255.05-.596.04-1.184.186-1.776.283 2.025.276 4.013.278 6 .275 2.147 0 2.435-.223 2.933-2.344.1-.416.154-.85.16-1.276.043-2.576.054-5.153.1-7.73.022-1.18.143-2.362.134-3.542a2608.607 2608.607 0 00-.143-15.49c-.013-1.129-.137-2.257-.115-3.383.076-3.6.288-7.2.278-10.8-.014-4.679-.23-9.354-.283-14.03-.055-4.733-.01-9.465-.023-14.197-.002-.804-.11-1.608-.124-2.413-.041-2.63-.058-5.263-.093-7.893-.005-.554-.047-1.107-.07-1.64-5.286.308-10.334 1.038-15.605.114v2.45c0 5 .04 10.002-.006 15.002-.075 7.69-.276 15.381-.296 23.072-.014 5.268.216 10.536.289 15.805.08 5.595.105 11.19.152 16.787.008 1.019-.083 2.05.027 3.06.162 1.52-.004 3.113.81 4.573l4.496-.57m160.047-71.74v.021h-14.831c-.484 0-.97-.022-1.453.02-1.271.11-1.715.516-1.935 1.747a6.635 6.635 0 00-.08.963c-.067 2.148-.108 4.297-.187 6.445-.204 5.581-.433 11.162-.634 16.744-.25 6.936-.267 13.868.14 20.8.094 1.606-.008 3.226-.027 4.84-.03 2.57-.09 5.144-.093 7.717-.002 2.033.073 4.068.1 6.103.034 2.736.046 5.474.092 8.21.006.427.12.854.22 1.27.16.656.573.974 1.276.984 1.45.02 2.9.12 4.349.13 3.652.034 7.304.028 10.956.054 1.877.013 3.753.084 5.63.085 2.091.001 4.183-.073 6.274-.065 2.304.008 4.606.06 6.91.121.776.021 1.236-.315 1.376-1.053.288-1.527.74-3.054.778-4.587.077-3.061-.074-6.128-.138-9.19-.146-7.038-.288-14.077-.45-21.114-.095-4.083-.347-8.165-.31-12.245.05-6.126.287-12.25.448-18.376.008-.267.103-.537.084-.8-.15-2.244-.168-4.51-.526-6.72-.3-1.844-.8-2.092-2.659-2.099-5.104-.017-10.208-.005-15.312-.005m-43.005 75.722c.472.05.888.128 1.305.134 3.543.045 7.084.062 10.627.122.793.014 1.24-.349 1.373-1.062.159-.84.284-1.7.306-2.556.089-3.494.16-6.987.186-10.483.032-4.145-.01-8.29.018-12.433.032-4.734.11-9.467.156-14.2.053-5.807.169-11.612.114-17.418-.042-4.727-.301-9.455-.457-14.183-.06-1.774-.04-3.554-.184-5.32-.06-.711-.415-1.42-.728-2.086-.387-.825-.904-1.586-1.307-2.406-.85-1.727-.321-3.73 2.338-3.592 3.326.173 6.665.18 9.998.153 3.384-.027 6.767-.235 10.15-.261 3.114-.026 6.228.134 9.342.124 4.35-.014 8.701-.16 13.05-.156 5.27.005 10.54.104 15.807.173 1.92.023 2.546.716 2.24 2.605-.226 1.428-.574 2.84-.884 4.254-.424 1.944-1.062 3.866-1.248 5.83-.326 3.474-.426 6.974-.526 10.462-.056 1.986.138 3.977.112 5.963-.048 3.656-.27 7.311-.254 10.966.024 5.322.214 10.645.298 15.97.126 8.01.21 16.023.344 24.034.022 1.394.206 2.786.305 4.18.053.774.423 1.14 1.233 1.149 3.547.04 7.094.116 10.64.164.306.004.611-.112.992-.187.022-.421.056-.782.054-1.144-.024-3.706-.128-7.416-.063-11.122.075-4.136.416-8.27.437-12.407.034-6.88-.088-13.764-.157-20.645-.03-2.85-.123-5.702-.133-8.55-.022-5.92-.022-11.84.005-17.76.005-1.062-.176-2.026-.796-2.895-.5-.7-.947-1.444-1.512-2.083-1.68-1.89-3.401-3.739-5.113-5.597-1.53-1.66-2.99-3.396-4.632-4.94-1.523-1.434-3.378-2.2-5.575-2.043a69.28 69.28 0 01-5.955.137c-4.08-.06-8.157-.238-12.236-.276-3.44-.03-6.88.058-10.322.122-4.89.09-9.779.222-14.67.306-2.466.04-4.935.04-7.402.007-1.824-.025-3.475.587-4.73 1.776-4.094 3.88-8.062 7.895-12.102 11.833-.717.7-.904 1.495-.947 2.46-.106 2.576-.316 5.148-.488 7.722-.1 1.5-.32 3.005-.285 4.504.104 4.511.341 9.022.461 13.535.147 5.538.243 11.076.328 16.615.074 4.835.1 9.67.152 14.507.007.536.074 1.072.075 1.608.004 2.202.019 4.406-.017 6.608-.043 2.57-.242 5.146.277 7.782m93.405-98.557v-.141c3.816 0 7.632-.013 11.448.007 1.773.009 3.545.12 5.319.12 1.244.004 1.426-.17 1.44-1.39.03-3.061.037-6.124 0-9.184-.019-1.688-.28-1.909-2.036-1.9-2.419.014-4.843.178-7.256.076-5.05-.212-10.094-.053-15.138.027a344.78 344.78 0 01-10.953.027c-7.685-.12-15.37-.36-23.057-.435-3.758-.036-7.52.224-11.28.276-2.04.028-4.081-.155-6.123-.145-3.546.016-7.09.12-10.633.164-4.733.06-9.467.141-14.196.134-8.39-.01-16.781-.072-25.173-.132-5.914-.042-11.827-.145-17.742-.168-2.633-.009-5.266.138-7.898.158-1.342.009-2.684-.176-4.024-.147-2.362.047-4.722.245-7.084.287-7.787.134-15.575.233-23.363.334-2.099.027-4.196.027-6.295.015-4.134-.02-8.269-.03-12.403-.093-2.683-.04-5.374-.078-8.044-.284-2.407-.187-4.77.28-7.194.124-4.334-.276-8.701-.094-13.054-.063-1.086.007-1.334.263-1.343 1.367-.032 3.546-.003 7.096-.017 10.644-.004.829.39 1.173 1.177 1.168.267 0 .537.036.805.034 3.92-.013 7.843-.02 11.764-.056 4.407-.04 8.814-.098 13.222-.173 5.589-.097 11.178-.303 16.767-.312 21.404-.037 42.81-.013 64.214-.013.269 0 .537 0 .806.005 3.76.107 7.52.31 11.28.293 6.075-.026 12.147-.178 18.222-.313 3.276-.073 6.55-.24 9.826-.33 4.352-.12 8.704-.251 13.058-.285 3.224-.022 6.448.155 9.673.15 5.537-.004 11.073-.103 16.61-.118 2.794-.008 5.587.098 8.38.123.912.007 1.824-.132 2.734-.11 2.47.06 4.94.215 7.41.249 3.384.044 6.768.01 10.151.01M600.428 801.782l.044.046v-2.92h-4.23c.247 1.28.511 2.517-.771 3.27a1.903 1.903 0 01-2.14-.084c-1.226-.853-.812-2.052-.494-3.317-2.23.11-4.342-.652-6.401.112-.357 2.173-.681 2.693-1.807 2.712-.453.01-1.114-.083-1.324-.38-.493-.697-.77-1.547-1.196-2.472-1.113.11-2.386-.252-3.6.227 0 .461.012.836-.001 1.213-.05 1.312-.663 1.937-1.86 1.907-1.133-.03-1.897-.8-1.899-1.963-.001-.463.09-.925.158-1.572-1.975 0-3.842-.005-5.707.007-.307.001-.61.085-1.024.148.421 1.402.67 2.742-.779 3.632-.618.38-1.23.274-1.796-.174-1.204-.954-.981-2.129-.37-3.386-.946-.294-1.726-.386-2.65.074 1.01.947 1.02 2.043.742 3.158.416.146.737.214 1.013.365.932.507 1.31 1.39 1.019 2.293-.303.939-1.324 1.594-2.26 1.446-.916-.146-1.554-.903-1.588-1.943-.018-.467.036-.937.057-1.368l-2.11-.85v4.166c3.298.363 3.954 1.588 2.293 4.075 1.366.996 2.233 1.586.585 4.26 1.107.149 1.107.149 1.693-.382 1.286-1.162 1.7-1.172 3.026-.145.28.217.64.467.965.464.995 0 1.987-.115 3.057-.19-.08-.482-.16-.79-.177-1.1-.076-1.267.767-2.267 1.93-2.32 1.213-.054 1.991.809 1.987 2.202v1.068l3.32-1.356c-.044-.89.012-1.919 1.15-2.43.72-.325 1.706-.134 2.237.433 1.053 1.125.419 2.273-.135 3.481 1.294.156 2.423.29 3.423-.05l.493-2.778c-2.001-.639-2.933-2.063-.848-4.336-1.46-1.533-1.722-2.79-.778-3.72.746-.74 1.882-.784 2.617-.103.953.884.808 2.134-.497 3.751 1.422.943 1.6 2.26.862 3.83 2.02.242 2.252 1.667 2.27 3.162.798-.207 1.514-.563 2.208-.524.657.04 1.29.49 1.933.761-.672-.84-1.057-1.674-.881-2.714a1.933 1.933 0 011.905-1.64c.952-.016 1.77.672 1.812 1.676.024.564-.163 1.146-.323 1.701-.094.325-.322.613-.524.973h3.406c-.267-.404-.416-.612-.547-.832-.623-1.066-.521-2.093.267-2.768.729-.624 1.742-.598 2.497.063.87.761.976 1.66.33 2.733-.148.246-.276.503-.414.762.762.437 1.058-.058 1.434-.446 1.304-1.346 2.076-1.318 3.312.078.112.125.25.232.48.445-.513-2.67-.113-3.164 2.68-3.579l.523-2.858c-1.008-1.315-1.161-2.378-.427-3.256.6-.714 1.702-.923 2.492-.472.98.56 1.084 1.54.366 3.454 2.208 2.37.88 4.13-1.707 4.26-.107.831-.216 1.66-.324 2.491 1.107.187 1.195.237 1.51-.303.593-1.02 1.495-1.464 2.62-1.542-.083-.502-.194-.866-.195-1.231-.004-1.059.876-1.955 1.918-2 1.018-.047 2.046.83 2.126 1.81.078.957-.627 1.74-1.756 1.947-.35.062-.702.112-1.082.174.64 1.382 1.09 1.502 3.48.976-.04-1.339.746-2.236 1.803-2.871-.064-1.837.45-2.756 1.616-2.984.973-.19 1.95.257 2.25 1.125.134.383.243.967.051 1.232-.476.659-1.133 1.187-1.828 1.875l.315 1.71h2.679c-.623-2.006-.334-3.238.99-3.426 2.898-.417 2.904 1.323 2.167 3.453.28.044.485.11.685.096.2-.013.395-.106.576-.16-.086-2.132.427-3.013 1.814-3 .493.006 1.052.215 1.464.5.893.622.505 1.655.582 2.543h3.734v-1.736c-.444-.064-.814-.093-1.174-.173-.973-.222-1.62-.947-1.596-1.756.024-.76.803-1.622 1.624-1.8.891-.194 1.814.266 2.252 1.186.18.375.243.807.38 1.28 2.12-.098 2.76 1.271 2.88 3.12l4.422-.337c-.587-1.987-.47-2.64.506-3.323.724-.504 1.743-.492 2.41.056 1.1.907.776 1.979.221 3.042.785.474 1.301.098 1.82-.299.62-.473 1.312-.557 1.956-.133.955.628 1.903.378 2.905.234-.58-1.937-.516-2.646.244-3.185.744-.528 1.907-.52 2.566.04 1.19 1.015.622 2.11-.078 3.34h2.979l.612-2.25c-.493-.133-.93-.185-1.31-.363-.907-.431-1.303-1.506-.97-2.475.297-.867 1.233-1.4 2.196-1.252.973.15 1.51.83 1.479 1.973-.015.52-.138 1.035-.214 1.56.85-.002.85-.002 1.247-.6.773-1.169 1.413-1.397 2.723-.95.245.082.477.208.682.3l1.772-1.912-.704-2.226c-.88.174-.88.174-1.197 1.091-.312.899-.941 1.45-1.733 1.441-.814-.009-1.484-.353-1.822-1.112-.353-.8-.262-1.593.382-2.236.301-.3.729-.48.996-.802.194-.234.22-.608.292-.834l-2.952-1.226c-.086.26-.28.573-.259.87.02.298.301.566.387.871.28.983-.058 1.937-.82 2.421a1.9 1.9 0 01-2.118-.1c-.702-.537-1-1.576-.64-2.484.174-.433.479-.813.723-1.218l-.285-.011-.435-3.247h-2.148c.836 1.33.79 2.416-.336 3.28-.65.496-1.388.458-2.087-.056-1.044-.766-1.16-1.341-.613-3.154-.716-.264-1.072-.067-1.213.72-.175.989-.723 1.672-1.832 1.697-.303.007-.607.001-1.007.001l.627 1.571c.66.037 1.25.023 1.824.116.756.123 1.26.555 1.384 1.364.141.927-.176 1.72-.87 2.09a1.993 1.993 0 01-2.368-.403c-.388-.423-.662-.95-.977-1.411-1.987.161-2.904-.305-3.068-1.536-.176-1.317.72-2.14 2.752-2.477l-.584-1.542h-3.38c-.141 2.08-.641 2.868-1.848 2.84-.503-.01-1.21-.156-1.453-.501-.458-.652-.646-1.493-.994-2.376h-4.653c-.19.85-.137 1.764-.57 2.217-.48.503-1.402.583-2.058.82.05.656.26 1.334.104 1.907-.15.552-.677 1.001-1.032 1.485 1.253 1.464 1.433 2.315.673 3.094-.674.693-2.273.7-2.96.014-.788-.789-.6-1.629.782-3.256-.736-.636-1.334-1.36-1.072-2.46.286-1.204 1.365-1.193 2.257-1.444l-.313-2.362h-3.326c.626 1.94.458 3.018-.5 3.616-.624.39-1.548.322-2.11-.156-.872-.742-.883-1.574.026-3.458-.474 0-.884-.013-1.29.004-.422.018-.842.067-1.334.107.06.605.128 1.128.16 1.653.052.9-.348 1.59-1.14 1.968-.628.298-1.268.163-1.8-.31-.652-.578-.977-1.286-.752-2.16.088-.346.258-.67.395-1.019-1.61-.365-5.547-.323-6.699.05-.02 1.99-.712 3.055-2.006 3.097-1.294.042-1.81-.759-2.07-3.316l-5.97-.259c.128.467.23.764.288 1.07.17.866-.07 1.62-.768 2.16-.736.566-1.507.443-2.248-.046-.224-.147-.458-.28-.687-.419m-5.893-266.239c-1.21-1.235-1.088-2.65-.573-4.073.836-2.298 2.37-4.034 4.354-5.44 3.741-2.658 8.035-3.398 12.459-3.923 4.13-.492 8.218-1.413 11.684-3.864 1.913-1.353 3.49-3.179 5.285-4.712 1.673-1.427 3.373-2.843 5.187-4.084.994-.68 2.216-1.096 3.39-1.435 1.103-.317 1.952.163 2.288 1.002.395.988.04 2.058-.89 2.684-.09.06-.18.124-.28.16-4.4 1.596-7.547 4.86-10.736 8.069-1.93 1.944-4.25 3.315-6.775 4.275-3.536 1.342-7.23 2.037-11 2.392-2.983.281-5.765 1.248-8.335 2.821-1.533.939-2.593 2.227-3.154 3.941-.263.802-.587 1.583-.899 2.415 1.304 0 2.586-.07 3.857.013 6.44.408 12.888.498 19.34.447 1.78-.013 3.092 1.29 3.262 3.339.182 2.193.213 4.404.21 6.606 0 1.395-.19 2.788-.29 4.182-.074 1.034-.507 1.897-1.388 2.426-1 .598-1.34 1.535-1.44 2.567-.108 1.115-.076 2.244-.094 3.368-.036 2.527-.064 5.055-.1 7.583-.004.32-.048.644-.053.965-.11 8.661-.267 17.323-.303 25.984-.017 4.248.203 8.495.294 12.742.017.86-.094 1.72-.094 2.58 0 .351.132.706.262 1.343 1.112-.993 2.078-1.799 2.98-2.67 2.705-2.62 5.372-5.28 8.077-7.9 2.2-2.132 4.475-4.192 6.648-6.354 3.012-2.993 5.952-6.06 8.941-9.077.984-.993 2.051-1.904 3.032-2.899 3.06-3.098 6.154-6.166 9.127-9.346 3.05-3.263 6.112-6.492 9.627-9.28 1.593-1.26 2.96-2.807 4.426-4.23 1.931-1.872 3.856-3.75 5.787-5.622 1.287-1.248 1.821-1.33 3.185-.25 1.008.798 2.047 1.619 2.839 2.616 2.36 2.974 5.325 5.315 8.027 7.93 2.97 2.882 5.973 5.734 8.917 8.64 6.275 6.197 12.523 12.42 18.777 18.636 2.86 2.844 5.68 5.728 8.57 8.54a521.273 521.273 0 008.315 7.878c2.635 2.456 5.37 4.81 7.954 7.317 4.902 4.762 9.692 9.64 14.6 14.394 3.474 3.366 7.084 6.594 10.604 9.916a527.635 527.635 0 017.19 6.95c3.914 3.84 7.771 7.742 11.726 11.54 3.684 3.538 7.53 6.908 11.186 10.475 4.506 4.395 8.886 8.92 13.328 13.38 1.328 1.333 2.692 2.63 4.026 3.957a8.96 8.96 0 011.053 1.219c.645.936.587 2.296-.139 3.147-.87 1.021-1.746 2.044-2.681 3.005a11.659 11.659 0 01-1.973 1.65c-1.814 1.18-3.247.957-4.751-.575a275.16 275.16 0 00-4.688-4.648c-.567-.55-1.201-1.03-2.035-1.736-.116.685-.234 1.07-.24 1.456-.018 1.992.024 3.986-.02 5.976-.04 1.773-.165 3.542-.244 5.313-.029.645-.033 1.29-.045 1.935-.041 2.47-.08 4.94-.127 7.41-.008.43-.068.859-.072 1.288-.053 6.294-.109 12.583-.144 18.876-.02 3.763-.061 7.528.011 11.29.107 5.535.307 11.067.475 16.6.004.134.093.267.23.633.267-.542.506-.879.61-1.254.906-3.264 1.822-6.526 2.67-9.806.44-1.707.856-2.274 2.003-2.314 1.163-.038 1.717.475 2.235 2.118.946 3.01 1.105 6.128 1.264 9.245.032.63.004 1.261.29 1.979.183-.27.447-.519.536-.819.368-1.235.675-2.488 1.024-3.728.144-.51.244-1.073.534-1.497.866-1.275 2.584-1.158 3.28.216 1.013 1.993 1.48 4.166 1.72 6.36.297 2.716.408 5.453.608 8.181.006.09.104.17.226.361 1.506-.856 2.664-2.097 3.728-3.413.667-.825 1.258-1.701 2.488-1.336 1.196.356 1.595 1.364 1.768 2.476a23.412 23.412 0 01-.45 9.605c-.251.978-.564 1.964-.2 3.188.912-.257 1.785-.445 2.616-.752 1.006-.372 1.966-.872 2.968-1.266 1.76-.694 2.858.03 2.938 1.88.086 1.928-.453 3.685-1.224 5.445-1.226 2.796-2.842 5.287-4.953 7.493-.525.548-.781 1.354-1.197 2.107 1.317.701 2.592.85 3.853 1.027a18.736 18.736 0 002.247.208c1.74.03 2.182 1.954 1.332 2.934-.875 1.008-1.85 1.934-2.814 2.859-.376.364-.841.637-1.382 1.037.318.32.529.623.817.803 2.373 1.472 4.73 2.979 7.157 4.36 1.97 1.12 2.21 2.375.547 3.88a5.39 5.39 0 01-1.188.819c-4.472 2.229-9.161 3.001-14.099 2.057-.461-.088-.922-.17-1.53-.283.138.355.16.592.292.734 2.117 2.274 3.746 4.993 6.326 6.856.952.686 1.783 1.556 2.614 2.397 1.31 1.328.906 2.89-.89 3.476-1.936.632-3.946.523-5.925.39-4.637-.314-8.619-2.138-11.907-5.449-.984-.992-1.953-2.005-2.986-2.946-1.08-.982-1.183-.851-2.454-.091-.893.533-1.96.973-2.978 1.053-2.024.155-4.074.098-6.107.011-3.113-.133-6.215-.22-9.333-.016-2.411.157-4.84.05-7.262.057-.577.003-1.154 0-1.85 0 0 .618-.01 1.028 0 1.438.044 1.706-.814 2.934-2.484 3.25a28.148 28.148 0 01-4.323.459c-2.307.075-4.615.037-6.921.019-3.814-.031-7.624-.159-11.435-.111-5.047.063-10.095.227-15.139.405-3.22.115-6.433.37-9.653.5-1.121.046-2.253-.137-3.378-.14-6.66-.013-13.32-.05-19.98.02-2.251.027-4.496.396-6.748.503-1.331.064-2.672-.075-4.008-.127-1.827-.07-3.654-.113-5.476-.226a235.374 235.374 0 01-7.391-.572c-.681-.066-1.364-.3-2.004-.56-1.27-.519-1.957-1.452-1.883-2.888.031-.574-.042-1.156-.074-1.848-.752-.098-1.378-.238-2.006-.251-3.924-.08-7.849-.11-11.773-.2-3.061-.07-6.121-.239-9.184-.29-1.555-.027-3.113.12-4.67.163-5.374.158-10.745.404-16.118.436-11.241.068-22.483.032-33.724.014-3.87-.007-7.742-.131-11.614-.126a1561.556 1561.556 0 00-18.868.144c-3.384.047-6.77.187-10.152.327-1.494.061-2.856.47-3.81 1.77-1.178 1.607-2.988 2.27-4.741 2.922-3.241 1.205-6.659 1.701-10.061 2.227-.526.082-1.074.032-1.611.009-.84-.037-1.453-.473-1.717-1.247-.274-.808-.182-1.62.52-2.216.449-.38.945-.709 1.438-1.033 1.159-.76 1.92-1.812 2.502-3.307-1.508-.089-2.878-.28-4.24-.229-4.27.161-8.167-1.083-11.911-2.977a4.3 4.3 0 01-.8-.536c-.664-.558-1.087-1.251-.747-2.127.311-.795.915-1.26 1.81-1.412 1.477-.25 3.044-.359 4.385-.952 2.545-1.123 4.97-2.527 7.42-3.857.877-.478 1.69-1.078 2.725-1.75-1.374-1.026-2.733-1.221-4.113-1.257-3.135-.084-6.23.22-9.257 1.081-.363.103-.726.218-1.096.274-1.963.294-3.063-.974-2.284-2.818.537-1.266 1.237-2.558 2.173-3.546 1.435-1.516 3.079-2.851 4.733-4.134 2.479-1.929 5.35-2.945 8.466-3.286.513-.058 1.017-.192 1.596-.306-.23-1.276-.964-2.09-1.659-2.858-2.83-3.13-4.716-6.812-6.153-10.707-.947-2.565-1.722-5.23-2.21-7.916-.361-1.981-.192-4.072-.146-6.11.021-1.003.821-1.747 1.702-1.887 1.056-.168 1.786.19 2.31 1.334 1.065 2.326 2.417 4.483 4.252 6.236 2.365 2.263 4.906 4.343 7.386 6.484.222.191.554.254 1.166.522-.2-.776-.268-1.28-.456-1.739-1.09-2.635-2.083-5.319-3.356-7.863-.834-1.664-2.01-3.177-3.17-4.649-.96-1.219-2.121-2.277-3.192-3.407-.222-.234-.468-.452-.657-.71-.499-.686-.535-1.636-.113-2.274.446-.678 1.126-.913 2.152-.586 1.226.388 2.466.786 3.63 1.333 2.836 1.328 5.506 2.93 7.702 5.217.146.155.31.3.482.427.078.053.199.047.399.088.33-.541.099-1.12-.016-1.65-.876-4.058-1.99-8.049-3.743-11.826-.722-1.556-1.641-3.023-2.453-4.54-.2-.372-.408-.765-.483-1.172-.148-.808.138-1.493.84-1.952.656-.427 1.364-.408 1.968.047a79.752 79.752 0 013.916 3.101 25.813 25.813 0 016.683 8.803c.085.184.223.346.501.766.12-.566.227-.878.248-1.197.846-12.527.418-25.07.443-37.605.013-7.15-.28-14.304-.444-21.453a41.648 41.648 0 00-.152-2.736c-.041-.454-.181-.902-.303-1.467-1.157.423-1.786 1.237-2.496 1.935-1.417 1.396-2.79 2.84-4.245 4.192-1.568 1.454-2.948 1.55-4.592.13-1.499-1.293-2.96-2.696-4.15-4.266-1.497-1.974-1.365-3.623.366-5.294a2712.197 2712.197 0 0020.784-20.297c2.525-2.492 4.89-5.147 7.397-7.661 3.872-3.884 7.743-7.774 11.738-11.53 1.513-1.42 2.165-2.985 2.14-4.977-.075-6.027-.168-12.052-.171-18.077-.003-5.32.176-10.64.15-15.96-.035-6.507-.207-13.013-.307-19.524-.027-1.821.017-3.645-.008-5.467-.035-2.473-.14-4.945-.147-7.418-.005-2.043.176-4.087.112-6.127-.125-4.08-.33-8.16-.573-12.236-.068-1.143-.571-2.137-1.474-2.959-.433-.394-.757-1.072-.837-1.661-.17-1.27-.213-2.565-.196-3.85.027-2.097.125-4.191.227-6.286.037-.747.152-1.493.266-2.236.18-1.16.918-1.812 2.03-1.996.628-.103 1.28-.064 1.924-.075 2.184-.04 4.368-.073 6.552-.109l.133-.332"></path><path d="M631.93 533.255c-3.08-.383-5.848-.72-8.613-1.077-1.704-.222-3.4-.659-5.104-.686-4.217-.066-8.381.307-12.112 2.598-.045.026-.087.064-.135.088-.986.51-2.006.412-2.506-.24-.478-.627-.427-1.828.165-2.556.972-1.195 2.2-2.067 3.66-2.539 2.57-.833 5.225-1.205 7.92-1.353 4.213-.234 8.325.549 12.473 1.096 7.18.946 14.06-.139 20.314-3.956 2.722-1.663 4.842-4.074 6.816-6.576.616-.78 1.26-1.462 2.342-1.527 1.56-.095 2.363.957 1.674 2.37-.394.809-.979 1.546-1.579 2.225-1.453 1.648-2.921 3.286-4.463 4.852-3.322 3.373-7.552 5.146-12.026 6.198-2.952.694-6.054.764-8.827 1.084m60.543-13.446c-.043 1.425-.912 1.98-2.18 1.676-1.04-.251-2.072-.578-3.128-.694-3.539-.39-6.958.244-10.302 1.38-5.37 1.827-9.926 5.022-14.449 8.347-4.492 3.301-9.488 5.483-15.223 5.435-.324-.003-.65.012-.966-.042-.856-.144-1.67-.981-1.699-1.71-.027-.667.632-1.531 1.436-1.766.51-.149 1.055-.198 1.588-.262 5.152-.614 9.737-2.627 13.824-5.754 4.603-3.522 9.485-6.512 15.032-8.289 4.107-1.316 8.328-1.568 12.6-1.13 1.319.135 2.303.866 3.073 1.885.244.321.33.764.394.924m-104.299 11.538c.054-2.142 1.027-3.952 2.215-5.62 2.721-3.816 6.472-6.034 11.06-6.916 2.581-.494 5.141-1.106 7.72-1.62a9.433 9.433 0 012.233-.164c.761.032 1.295.52 1.547 1.235.27.768-.094 1.353-.67 1.837-1.453 1.224-3.225 1.69-5.032 2.003-2.697.47-5.424.752-8.002 1.787-3.679 1.48-6.15 4.036-7.27 7.861-.015.052-.022.105-.037.157-.4 1.347-1.226 2.064-2.217 1.923-1.004-.143-1.587-1.08-1.547-2.483m149.278 204.67c-.013-1.082-.63-3.006-2.192-4.354-1.613-1.395-3.653-2.05-5.818-2.021-2.556.033-4.82 1.905-5.579 4.344-.82 2.637-.133 5.058 1.2 7.233 1.312 2.14 3.455 3.277 6.015 3.012 3.522-.366 6.31-3.64 6.373-8.215m3.717.612c.471 7.107-6.398 13.036-13.055 11.257-.467-.124-.94-.254-1.42-.3-1.935-.186-3.184-1.333-4.26-2.837-1.432-2.003-2.212-4.29-3.008-6.57-.223-.634-.267-1.39-.184-2.066.586-4.746 3.068-9.213 8.289-10.326 5.704-1.216 12.88 2.08 13.564 9.878.028.32.05.643.074.964m4.538 24.007c0 4.346-.004 8.694.002 13.041.006 2.681.032 5.361.04 8.041.01 2.04.012 4.08 0 6.118-.002.589-.008 1.188-.106 1.766-.167.998-.647 1.462-1.408 1.488-.77.028-1.536-.533-1.704-1.433-.364-1.952-.707-3.904-.524-5.919.304-3.373.222-6.749.046-10.133-.149-2.837-.04-5.69-.04-8.533-.005-3.06-.004-6.119-.01-9.178-.003-1.02-.056-2.04-.028-3.062.032-1.192.606-1.903 1.49-1.95.86-.048 1.692.658 1.79 1.722.245 2.67.405 5.348.6 8.022zm-16.093-.976c0 3.857.012 7.714-.007 11.572a76.348 76.348 0 01-.15 4.02c-.065 1.085-.586 1.686-1.48 1.808-.98.133-1.673-.347-1.954-1.483a6.114 6.114 0 01-.175-1.91c.208-2.629.266-5.245-.11-7.869-.11-.78-.028-1.613.09-2.4.302-2.02.628-4.02.347-6.082-.136-1-.073-2.043.02-3.055.099-1.073.859-1.768 1.752-1.779.955-.013 1.783.76 1.819 1.872.058 1.766.016 3.534.016 5.304zm6.515 13.27c-.1 1.466-.326 3.446-.352 5.428-.034 2.523.094 5.048.147 7.574.01.322.023.648-.01.968-.053.533-.094 1.076-.22 1.594-.195.814-.791 1.262-1.62 1.314-.796.049-1.406-.307-1.651-1.027a5.352 5.352 0 01-.253-1.888c.1-2.737.349-5.472-.294-8.187-.108-.453-.005-.96.023-1.442.12-2.143.23-4.288.39-6.428.063-.85.145-1.726.411-2.524.303-.9 1.107-1.26 1.92-1.087.745.157 1.21.705 1.287 1.64.093 1.177.133 2.36.222 4.064m9.626-39.001c0 1.932.002 3.862-.003 5.794 0 .427.019.867-.053 1.287-.132.76-.827 1.403-1.514 1.476-.73.079-1.397-.377-1.692-1.219a3.995 3.995 0 01-.2-1.102c-.166-3.11-.3-6.223-.48-9.333-.14-2.463-.333-4.926-.493-7.388a6.502 6.502 0 01.017-1.128c.112-1.03.834-1.77 1.73-1.81.9-.04 1.693.627 1.84 1.687.16 1.17.244 2.35.313 3.53.157 2.733.285 5.466.427 8.2l.108.006m-22.596 43.013c0 2.73.019 5.46-.005 8.19-.02 1.922-.04 3.85-.168 5.767-.086 1.255-.636 1.76-1.632 1.83-1.227.085-1.954-.603-1.968-1.982-.011-1.016.169-2.034.144-3.048-.07-2.784-.26-5.565-.284-8.349-.014-1.33.18-2.675.4-3.993.104-.61.424-1.214.766-1.744.39-.599 1.047-.726 1.723-.543.648.175.947.656 1 1.308l.225 2.561a10.137 10.137 0 01-.201.003m-9.556 6.313c0-3.326-.037-6.653.03-9.977.015-.71.267-1.512.666-2.097.784-1.152 2.09-.943 2.627.341.162.393.306.823.328 1.241.084 1.711.15 3.423.16 5.135a155.64 155.64 0 01-.08 5.957c-.035 1.124-.106 2.256-.287 3.364-.19 1.17-.879 1.707-1.832 1.619-.905-.084-1.59-.804-1.639-1.88-.056-1.232-.013-2.467-.013-3.703h.04m3.921-24.298v5.63c0 .215.007.431-.004.646-.062 1.221-.556 1.868-1.486 1.96-.934.093-1.912-.586-2.084-1.646a29.859 29.859 0 01-.355-4.006c-.03-1.286.056-2.58.17-3.863.057-.63.207-1.28.471-1.852.302-.653.847-1.157 1.66-1.023.779.13 1.222.707 1.363 1.43.173.893.227 1.81.333 2.716l-.068.008m-.202-29.405c0 .91.057 1.826-.014 2.733-.086 1.07-.813 1.787-1.706 1.823-.955.037-1.776-.715-1.85-1.831-.146-2.247-.233-4.497-.341-6.747-.01-.213-.01-.43.013-.644.104-.952.768-1.701 1.566-1.778.74-.074 1.584.442 1.794 1.333.244 1.033.312 2.115.404 3.18.056.64.01 1.287.01 1.93zm3.376 33.994c0-.587-.072-1.187.017-1.76.125-.804.644-1.343 1.459-1.51.706-.147 1.416.269 1.754 1.1.564 1.382.52 2.837.19 4.25-.207.89-1.002 1.33-1.82 1.245-.786-.08-1.427-.706-1.6-1.564a1.697 1.697 0 01-.03-.32c-.004-.48-.001-.96-.001-1.44zm17.291-7.153c-.017.956-.493 1.581-1.333 1.744-.93.18-1.796-.208-2.015-1.15a13.44 13.44 0 01-.346-3.328c.024-.96.861-1.64 1.674-1.637.774.004 1.432.567 1.62 1.515.183.942.271 1.904.4 2.856m-24.313-7.747c.07-.525.072-1.072.23-1.57a1.672 1.672 0 011.7-1.2c.87.037 1.472.562 1.588 1.329a7.58 7.58 0 01-.094 2.674 1.71 1.71 0 01-1.778 1.328c-.795-.072-1.47-.813-1.572-1.754-.03-.263-.004-.532-.004-.8-.024 0-.047-.004-.07-.007m4.916-25.601c0-.267-.028-.54.004-.805.123-1.004.886-1.74 1.784-1.74.879 0 1.483.586 1.65 1.645.074.476.133.961.126 1.443-.016 1.24-.601 1.904-1.662 1.956-1.19.057-1.83-.56-1.912-1.854-.014-.213-.002-.43-.002-.645zm9.15-1.064c.04-.292.044-.785.18-1.237.388-1.267 1.664-1.608 2.653-.743.94.82 1.132 2.68.384 3.683-.464.624-1.088.85-1.833.7-.767-.151-1.206-.65-1.328-1.416-.042-.263-.032-.532-.056-.987m6.153.43c.016-1.357.59-2.047 1.714-2.062 1.16-.016 1.934.83 1.922 2.101-.01 1.327-.734 2.262-1.772 2.288-1.11.03-1.88-.932-1.864-2.328m-160.242-7.105c-1.6.125-3.2.259-4.802.37a16.047 16.047 0 01-1.928.04c-1.15-.06-1.764-.613-1.866-1.6-.103-1.018.453-1.915 1.528-2.143 1.464-.312 2.953-.648 4.437-.684 1.973-.046 3.956.176 5.932.31.421.03.85.136 1.25.278.963.337 1.5.992 1.457 1.704-.044.704-.835 1.654-1.675 1.748-1.11.122-2.24.069-3.36.088-.321.005-.643 0-.965 0l-.008-.111m-.932 5.77c-1.4-.11-3.002-.229-4.603-.362-1.304-.108-1.89-.637-1.907-1.695-.013-1.03.766-1.976 1.87-2.053 1.28-.09 2.574-.055 3.86-.028 1.124.024 2.246.103 3.368.17.426.026.858.057 1.276.143 1.253.264 1.8.814 1.762 1.726-.04.952-.928 1.809-2.048 1.902-1.121.092-2.246.127-3.578.198m-.45 2.189c1.8-.07 2.604.657 3.223 1.548.707 1.02.103 2.197-1.145 2.34a173.74 173.74 0 01-4.63.461c-1.154.102-1.97-.448-2.186-1.426-.254-1.142.308-2.187 1.504-2.454 1.246-.28 2.537-.373 3.234-.47m-.56 10.569c-.781-.09-1.43-.123-2.058-.25-.987-.203-1.54-.969-1.51-1.986.028-1.007.642-1.797 1.647-1.85 1.12-.06 2.259-.02 3.368.13.992.133 1.604.893 1.637 1.724.03.77-.457 1.505-1.338 1.823-.6.216-1.246.298-1.746.41m-.754 50.825c-.187-.028-.674-.056-1.134-.18-1.058-.285-1.504-1.045-1.352-2.21.126-.962.658-1.44 1.738-1.523.373-.03.748-.021 1.12-.008 1.577.052 2.362.733 2.336 2.013-.027 1.294-.847 1.943-2.707 1.907m.433-5.128c-.32-.05-.766-.039-1.15-.19-1.066-.42-1.432-1.67-.838-2.678.486-.823 1.314-1.12 2.356-.85 1.202.314 2.022 1.089 2.068 1.955a1.605 1.605 0 01-1.22 1.66c-.356.084-.738.066-1.216.103m-.03-44.013c1.268.013 2.117.767 2.144 1.898.025 1.094-.892 1.898-2.148 1.884-1.262-.013-2.083-.776-2.102-1.946-.016-1.208.722-1.853 2.107-1.836m-1.921 36.721c.026-1.093.885-1.876 2-1.823 1.073.054 1.893.827 1.89 1.791 0 1.01-1.08 1.993-2.145 1.955-.98-.034-1.772-.906-1.747-1.923m221.174-61.322c.927.052 1.996.1 3.062.178.318.023.634.107.941.2 1.167.355 1.844 1.116 1.785 1.986-.058.872-.841 1.558-2.024 1.74-.368.058-.746.057-1.121.058-1.492.006-2.984.018-4.476-.005-.53-.01-1.083-.036-1.584-.187-1.003-.302-1.53-1.11-1.448-2.05.075-.86.68-1.531 1.68-1.675 1.004-.143 2.025-.161 3.185-.245m1.69 9.534c-1.003-.158-2.08-.252-3.114-.525-.533-.141-1.07-.516-1.453-.928-1.023-1.093-.516-2.887.94-2.925 1.793-.046 3.616.297 5.392.649.727.147 1.273.85 1.201 1.717-.076.902-.714 1.436-1.478 1.76-.43.18-.939.167-1.488.254m-1.46 64.582c.566.083 1.32.124 2.036.312 1.022.267 1.528 1.027 1.466 2.012-.057.932-.554 1.613-1.602 1.684a22.085 22.085 0 01-4.134-.135c-.894-.109-1.4-.876-1.426-1.697-.031-.881.506-1.613 1.418-1.899.254-.08.52-.12.786-.15.424-.05.849-.076 1.456-.127m-.023-59.426c-.637-.064-1.295-.054-1.91-.208-1.13-.284-1.693-1.184-1.54-2.294.135-1.002.87-1.653 2.035-1.64.96.01 1.93.099 2.874.274 1.18.218 1.85 1.128 1.726 2.154-.116.963-.853 1.566-2.054 1.654-.374.026-.751.004-1.126.004l-.005.056m-.305 58.406c-.32 0-.643.023-.96-.004-.992-.085-1.528-.53-1.704-1.387-.214-1.036.142-1.934 1.052-2.257 1.178-.42 2.41-.488 3.586.04.907.405 1.292 1.092 1.176 1.888-.113.787-.861 1.563-1.713 1.68-.47.067-.957.013-1.437.013zm-.431-52.01c-.355-.046-.893-.071-1.408-.194-.859-.202-1.42-.87-1.493-1.67-.072-.802.342-1.672 1.168-1.896.848-.23 1.79-.334 2.656-.22 1.018.133 1.59 1.366 1.38 2.54-.184 1.03-.84 1.476-2.304 1.44m2.966 43.383c-.021 1.16-1.093 2.054-2.432 2.024-1.336-.029-2.193-.853-2.149-2.058.043-1.156.881-1.904 2.128-1.899 1.53.008 2.476.753 2.453 1.933m-3.49-36.585c-1.507.001-2.418-.747-2.376-1.953.038-1.15 1.073-1.965 2.488-1.959 1.142.006 2.065.978 2.077 2.19.01 1.129-.739 1.72-2.19 1.72m.83 30.131c1.361-.028 2.352.763 2.327 1.858-.023 1.02-1.015 1.904-2.155 1.92-1.244.02-2.25-.886-2.225-2 .024-1.03.86-1.754 2.053-1.778m-216.547 33.651c1.922.29 2.794 1.03 2.717 2.233-.083 1.28-1.05 1.958-2.903 1.956-.042.398-.08.808-.133 1.218-.147 1.129-.721 1.69-1.753 1.717-1.04.028-2.054-.81-2.166-1.787-.101-.88.532-1.816 1.466-2.062.46-.12.954-.114 1.518-.172v-1.976c-.38-.096-.856-.151-1.274-.334-.974-.429-1.463-1.565-1.167-2.562.264-.894 1.13-1.43 2.14-1.324.9.094 1.453.632 1.547 1.566.046.478.008.963.008 1.527m17.832 4.627c.762 2.106.694 2.988-.24 3.546-.734.44-1.928.295-2.544-.305-.844-.823-.767-1.803.15-3.143-.038-.986-.157-1.829-.062-2.645.04-.341.48-.703.822-.927.72-.473 1.85-.298 2.35.351.922 1.2.26 2.208-.476 3.123m47.386.798c-2.156.43-3.153.128-3.528-1.066-.275-.875.245-1.87 1.147-2.199 1.298-.472 2.18.116 2.84 1.765.942.056 1.826.002 2.648.206.353.086.69.669.832 1.093.384 1.14-.139 2.187-1.132 2.475-1.318.382-2.14-.283-2.807-2.274m-71.31 1.552c2.008.648 2.53 1.23 2.36 2.627-.11.913-.654 1.45-1.56 1.537-1.347.131-2.022-.534-2.535-2.496-1.85-.917-2.487-1.769-2.181-2.921a1.87 1.87 0 011.754-1.39c1.18-.037 1.675.569 2.162 2.645m33.482-3.756c.357-2.251.93-2.896 2.403-2.774 1.124.094 1.613.731 1.53 1.996-.093 1.46-.87 1.947-3.037 1.899-.461 2.24-1.027 2.84-2.43 2.58-.982-.181-1.612-1.064-1.524-2.13.106-1.293.83-1.68 3.058-1.571m23.303 1.225c-2.219-.181-2.768-.539-2.798-1.824-.024-1.01.5-1.696 1.406-1.843 1.393-.226 1.91.223 2.334 1.904.926.235 1.81.352 2.587.706.333.152.56.774.632 1.216.15.928-.536 1.746-1.51 1.964-1.26.281-1.92-.247-2.651-2.123m16.346-4.148c1.851-.544 3.007-.168 3.4 1.077.27.859-.324 1.854-1.266 2.12-1.183.334-2.032-.364-2.63-2.181-.504.107-1.008.275-1.522.312-1.034.073-1.738-.448-1.916-1.333a1.912 1.912 0 011.085-2.128 1.853 1.853 0 012.372.798c.225.41.323.891.477 1.334"></path><path d="M606.134 809.738c-.026 1.254-.693 1.934-1.868 1.906-1.12-.027-1.894-.823-1.904-1.954-.009-1.2.836-2.03 2.024-1.992 1.14.036 1.774.776 1.747 2.04m1.33-9.938c1.083-.004 1.92.864 1.886 1.96-.033 1.122-1.001 2.142-2.008 2.117-.97-.024-1.912-1.013-1.924-2.019-.01-1.08.959-2.056 2.045-2.058m-31.162 7.26c1.075-.002 1.859.804 1.888 1.938.032 1.259-.707 2.118-1.844 2.139-1.063.019-2.017-.92-2.053-2.023-.04-1.069.925-2.053 2.009-2.054m5.941.046c.027 1.24-.765 2.106-1.916 2.092-1.09-.013-1.841-.808-1.857-1.969-.017-1.232.784-2.124 1.899-2.113 1.048.01 1.849.861 1.874 1.99m18.19-5.324c.07.476.206.952.2 1.427-.02 1.276-.99 2.108-2.218 1.965-1.186-.14-1.79-1.156-1.512-2.545a1.917 1.917 0 012.46-1.436c.398.127.741.417 1.11.635l-.04-.046m-5.46 6.623c-1.115-.035-1.895-.961-1.832-2.177.056-1.098.889-1.902 1.965-1.894 1.115.01 1.868.916 1.805 2.174-.056 1.136-.866 1.93-1.937 1.897m-14.336-7.805c1.113-.02 1.943.873 1.927 2.074-.014 1.13-.663 1.83-1.735 1.871-1.16.044-2.025-.79-2.033-1.963-.008-1.121.773-1.964 1.84-1.982m-12.004 2.108c1.186 0 1.826.682 1.806 1.925-.017 1.205-.704 1.953-1.817 1.983-1.084.026-1.913-.774-1.95-1.88-.038-1.178.782-2.027 1.96-2.027m47.766 4.21c-.028-1.089.768-1.911 1.882-1.947 1.147-.038 1.827.58 1.872 1.697.046 1.135-.81 2.144-1.862 2.199-1.008.05-1.864-.831-1.894-1.95m40.108.99c-1.026-.018-1.992-.95-2.001-1.934-.013-1.066.947-1.868 2.193-1.836 1.198.031 1.872.658 1.871 1.742 0 1.102-.96 2.046-2.063 2.026m-40.342-4.8c.017.582.122 1.176.03 1.739-.137.847-.973 1.541-1.76 1.619-.794.077-1.625-.411-1.938-1.135-.292-.673-.094-1.725.577-2.155.453-.29 1.076-.426 1.624-.428.507-.001 1.013.267 1.52.419zm-26.513-3.957c1.06-.04 1.92.792 1.952 1.896.033 1.112-.77 2.005-1.82 2.027-1.106.021-1.914-.768-1.946-1.894-.03-1.136.732-1.986 1.814-2.029"></path><path d="M616.16 803.106l.053.059c-.15-.393-.37-.776-.427-1.181-.117-.834.374-1.582 1.147-1.9.765-.315 1.7-.116 2.19.466.52.618.54 1.854.043 2.539-.514.707-1.288.97-2.104.639-.33-.134-.602-.41-.902-.622m37.885 6.995a1.857 1.857 0 01-1.812 1.859c-1.079.032-2.06-.91-2.085-2-.027-1.138.725-1.808 1.974-1.763 1.162.043 1.935.81 1.923 1.904m-6.26-.57c-1.141-.01-2.027-.822-2.003-1.837.024-1.01.931-1.777 2.082-1.76 1.154.022 1.826.658 1.845 1.758.021 1.162-.7 1.85-1.924 1.84m13.685-177.067c-.029 1.094-.864 1.868-1.986 1.848-1.174-.02-1.966-.884-1.914-2.084.048-1.112.858-1.874 1.978-1.86 1.142.014 1.956.9 1.922 2.096m-10.217 3.943c-.013-1.128.78-1.968 1.87-1.979 1.054-.01 2.037.966 2.06 2.05.022.984-.935 1.994-1.913 2.02-1.034.026-2.004-.978-2.017-2.09m3.43 7.91c-1.115-.044-1.889-.98-1.815-2.2.069-1.14.882-1.916 1.966-1.876 1.142.044 1.87.928 1.803 2.19-.061 1.135-.883 1.928-1.953 1.886M658 624.416c1.14.008 1.905.876 1.867 2.123-.038 1.206-.711 1.82-1.96 1.785-1.166-.033-1.947-.787-1.947-1.879-.001-1.093.945-2.036 2.04-2.029m-1.056 35.56c.003 1.144-.856 1.955-2.056 1.941-1.228-.013-1.853-.654-1.844-1.896.008-1.176.728-1.976 1.81-2.013 1.091-.037 2.087.9 2.09 1.968m2.11-8.064c-.015 1.09-.88 1.953-1.931 1.923-1.086-.032-2.032-1.034-1.99-2.107.043-1.063.922-1.835 2.046-1.8a1.925 1.925 0 011.876 1.984m.486 5.983c-1.125.008-1.956-.78-1.968-1.867-.013-1.09.974-2.101 2.01-2.063.976.036 1.88 1.007 1.888 2.024.008 1.084-.815 1.896-1.93 1.904m-2.264-27.585c-.028 1.181-.886 1.956-2.089 1.888-1.112-.061-1.84-.864-1.817-2.003.022-1.136.904-1.928 2.109-1.896 1.076.03 1.827.871 1.799 2.012m-1.938 18.375c-.013 1.139-.805 1.933-1.906 1.919-1.086-.016-1.874-.855-1.858-1.98.015-1.115.836-1.936 1.92-1.92 1.088.017 1.859.844 1.844 1.981m5.027-9.583c-.027 1.198-.753 1.88-1.941 1.816-1.112-.057-1.886-.906-1.82-2 .06-1.022 1.018-1.928 2.005-1.896 1.04.035 1.781.912 1.756 2.08m44.036-8.95c-.316 1.846-1.019 2.7-2.139 2.68-.925-.016-1.842-.899-1.928-1.852-.106-1.174.56-1.767 2.56-2.272.426-2.074.934-2.712 2.134-2.675a1.885 1.885 0 011.796 1.557c.197 1.187-.556 2-2.423 2.562m-.42 32.506c.561-1.986 1.435-2.648 2.792-2.12a1.91 1.91 0 011.056 2.523c-.533 1.244-1.701 1.387-3.543.43-.61 1.88-1.644 2.686-2.865 2.231-.97-.36-1.505-1.56-1.125-2.513.502-1.26 1.593-1.423 3.684-.55m2.696-26.437c.029 1.238-.634 1.966-1.794 1.968-1.1.003-1.966-.822-1.978-1.885-.011-.987.926-1.995 1.894-2.041 1.023-.048 1.85.813 1.878 1.958m4.058-11.476c.014 1.187-.706 1.96-1.821 1.96-1.132 0-1.944-.778-1.947-1.869-.005-1.019.887-1.984 1.87-2.027 1.044-.045 1.888.814 1.898 1.936m-.83 24.87c-.03 1.084-.664 1.786-1.632 1.801-1.08.017-2.147-.987-2.122-1.996.024-.98 1.05-1.953 2.019-1.916 1.013.039 1.765.952 1.733 2.11m-.966-17.622c1.072-.032 1.889.821 1.888 1.968 0 1.083-.734 1.91-1.734 1.96-1.08.055-1.946-.77-1.985-1.888-.037-1.125.753-2.008 1.83-2.04m-5.998 19.697c1.167-.002 2.007.86 1.975 2.03-.031 1.09-.698 1.72-1.847 1.738-1.24.019-1.896-.6-1.921-1.816-.026-1.226.638-1.949 1.793-1.952m1.147-3.933c-.008 1.09-.743 1.775-1.867 1.735-1.053-.036-1.85-.807-1.885-1.819a1.863 1.863 0 011.912-1.939c1.066.018 1.848.875 1.84 2.023m88.638 159.949c-.021.72-.581 1.525-1.221 1.752-.776.277-1.78.047-2.31-.688-.433-.601-.862-.987-1.65-1.07-.847-.091-1.267-.734-1.336-1.577-.068-.805.129-1.497.869-1.936.645-.381 1.832-.392 2.25.196.598.843 1.366 1.187 2.289 1.51.713.249 1.128.969 1.109 1.813"></path></g></svg><style>@media (prefers-color-scheme: light) { :root { filter: none; } }
</style></svg><style>@media (prefers-color-scheme: light) { :root { filter: none; } }
@media (prefers-color-scheme: dark) { :root * { fill: #fff; } }
</style></svg>